…
### Exercise 1
Generate a tibble that contains the positions of transcription start sites for all genes on the plus strand. 

```{r answer_1, eval = F}

tss <- genes %>% 
  filter(strand == "+") %>% 
  ...

tss
```

Your `tss` bed tibble that you generate should look like this:
``` r
#> # A tibble: 28,035 x 6
#>    chrom  start    end         name score strand
#>    <chr>  <int>  <dbl>        <chr> <chr>  <chr>
#>  1  chr1  11868  11869 LOC102725121     3      +
#>  2  chr1  11873  11874      DDX11L1     3      +
#>  3  chr1  30365  30366    MIR1302-2     1      +
#>  4  chr1  30365  30366    MIR1302-9     1      +
#>  5  chr1  30365  30366   MIR1302-10     1      +
#>  6  chr1  30365  30366   MIR1302-11     1      +
#>  7  chr1  69090  69091        OR4F5     1      +
#>  8  chr1 323891 323892 LOC100132287     3      +
#>  9  chr1 323891 323892 LOC100132062     3      +
#> 10  chr1 323891 323892 LOC100133331     4      +
#> # ... with 28,025 more rows
```
…
Generate a tibble that contains the intervals +/- 1000 nucleotides surrounding the TSS position. Conceptually, these are the intervals that are shown in Figure 1A. `valr` provides the [`bed_slop()`](https://rnabioco.github.io/valr/reference/bed_slop.html) function, which adds nucleotides to intervals. 

[`bed_slop()`](https://rnabioco.github.io/valr/reference/bed_slop.html) requires the `genome` tibble which contains the length of each chromosome. In your Rmarkdown document, speculate as to why this function might require the lengths of each chromosome to produce the correct output. 

```{r answer_2, eval = F}
slop_bed <- bed_slop(tss, genome, ...) 

slop_bed
```


Your `slop_bed` bed tibble that you generate should look like this:
``` r
#> # A tibble: 28,034 x 6
#>    chrom  start    end         name score strand
#>    <chr>  <dbl>  <dbl>        <chr> <chr>  <chr>
#>  1  chr1  10868  12869 LOC102725121     3      +
#>  2  chr1  10873  12874      DDX11L1     3      +
#>  3  chr1  29365  31366    MIR1302-2     1      +
#>  4  chr1  29365  31366    MIR1302-9     1      +
#>  5  chr1  29365  31366   MIR1302-10     1      +
#>  6  chr1  29365  31366   MIR1302-11     1      +
#>  7  chr1  68090  70091        OR4F5     1      +
#>  8  chr1 322891 324892 LOC100132287     3      +
#>  9  chr1 322891 324892 LOC100132062     3      +
#> 10  chr1 322891 324892 LOC100133331     4      +
#> # ... with 28,024 more rows
```
…
Smaller bin values will increase the resolution of the final plot, but dramatically increase the size of your bed interval tibble (i.e. if you break every 2001 nt region into 1 nt, then for each gene you generate 2001 new intervals). Similarly, larger bin values will decrease resolution of the metagene, but compute faster.  

`valr` provides the [`bed_makewindows()`](https://rnabioco.github.io/valr/reference/bed_makewindows.htmll) function, which will split up each interval into sub-intervals (i.e windows). This function has many options to control the size of the windows generated. Read the documentation for `bed_makewindows()` to pick an option that will generate non-overlapping 10 nucleotide windows across each TSS interval. 

Note that `bed_makewindows()` will dramatically increase the size of your output tibble. **Do not select a window size less than 10, as this will generate a tibble with potentially 10s of millions of rows(!).** 

```{r answer_3, eval = F}
tss_windows <- slop_bed %>% 
  bed_makewindow(genome, ...)
```

Your output `tss_windows` tibble should look like this:
``` r
#> # A tibble: 5,634,834 x 7
#>    chrom start   end         name score strand .win_id
#>    <chr> <int> <int>        <chr> <chr>  <chr>   <int>
#>  1  chr1 10868 10878 LOC102725121     3      +       1
#>  2  chr1 10878 10888 LOC102725121     3      +       2
#>  3  chr1 10888 10898 LOC102725121     3      +       3
#>  4  chr1 10898 10908 LOC102725121     3      +       4
#>  5  chr1 10908 10918 LOC102725121     3      +       5
#>  6  chr1 10918 10928 LOC102725121     3      +       6
#>  7  chr1 10928 10938 LOC102725121     3      +       7
#>  8  chr1 10938 10948 LOC102725121     3      +       8
#>  9  chr1 10948 10958 LOC102725121     3      +       9
#> 10  chr1 10958 10968 LOC102725121     3      +      10
#> # ... with 5,634,824 more rows
```
…
Using `bed_map()` calculate the total coverage (i.e. `sum()`) of the Chip-Seq coverage values (the `bedGraph` named `bg`) across the tss window intervals (`tss_windows`). This function might take 30-60 seconds to complete. 

If you are having trouble getting the proper output, it may be useful to generate a smaller tss_windows bed file to test your function before running on the whole dataset (use `sample_n()`), so that you don't have to wait 30-60 second per try.  

```{r answer_5, eval = F}
chip_coverage <- bed_map(tss_windows, 
                         bg, 
                         ...)
```

The expected output is shown below. Note that the `total_reads` column name may another name depending on what you assign your summary statistic to (i.e. `total_reads = sum(value)`, or `total_coverage = sum(value)`). Also note that there are many NA values in the total_reads column. This is expected as not every gene is being transcribed in the genome, so some regions have no coverage in the ChIP-Seq experiment. 

``` r
#> # A tibble: 5,626,622 x 8
#>    chrom start   end         name score strand .win_id total_reads
#>    <chr> <int> <int>        <chr> <chr>  <chr>   <int>       <dbl>
#>  1  chr1 10868 10878 LOC102725121     3      +       1          NA
#>  2  chr1 10873 10883      DDX11L1     3      +       1          NA
#>  3  chr1 10878 10888 LOC102725121     3      +       2          NA
#>  4  chr1 10883 10893      DDX11L1     3      +       2          NA
#>  5  chr1 10888 10898 LOC102725121     3      +       3          NA
#>  6  chr1 10893 10903      DDX11L1     3      +       3          NA
#>  7  chr1 10898 10908 LOC102725121     3      +       4          NA
#>  8  chr1 10903 10913      DDX11L1     3      +       4          NA
#>  9  chr1 10908 10918 LOC102725121     3      +       5          NA
#> 10  chr1 10913 10923      DDX11L1     3      +       5          NA
#> # ... with 5,626,612 more rows
```
…
