…
qpcr384_data <- readr::read_csv(qpcr384_data_csv)
qpcr384_names <- readr::read_csv(qpcr384_names_csv)

```

### Exercise 2

Inspect these tibbles and make note of their resemblance to a 384 plate. Tidy these tibbles into a format like:

```
# A tibble: 384 x 8
     row   col       cell  time  gene    rt   rep value
   <chr> <chr>      <chr> <chr> <chr> <chr> <chr> <dbl>
 1     A     1 MAGIC-hypo     0 ACTIN     +     1   2.6
 2     B     1 MAGIC-hypo     0 ACTIN     -     1   0.0
 3     C     1 MAGIC-hypo     0 ACTIN     +     2   1.6
 4     D     1 MAGIC-hypo     0 ACTIN     -     2   0.0
 5     E     1 MAGIC-hypo     0 ACTIN     +     3   2.8
 6     F     1 MAGIC-hypo     0 ACTIN     -     3   0.0
 7     G     1 MAGIC-hypo     0 MAGIC     +     1  12.0
 8     H     1 MAGIC-hypo     0 MAGIC     -     1   0.0
 9     I     1 MAGIC-hypo     0 MAGIC     +     2  10.5
10     J     1 MAGIC-hypo     0 MAGIC     -     2   0.0
# ... with 374 more rows
```
…
