…
2) Assign the random intervals produced in question 1 to a new object called `random_ivls`. Shuffle these intervals using `bed_shuffle()`, and supply a seed set to `42`. How many intervals are now on `chr1`? Shuffle the random intervals (`random_ivls`) again, but set the `within` argument to `TRUE`. What effect does this have on the number of intervals per chromosome?

3) Use `bed_shuffle()` to generate a set of shuffled intervals for the RNA-PolII ChIP-Seq bedgraphs. Again set the seed argument to `42`. Assign the output to an object named `shuffled_coverage`. Calculate the total number of basepairs covered in the shuffled and the original bed tibbles. 

## How to generate a metagene plot with multiple samples?

In the previous exercise we generated a shuffled bedgraph (`shuffled_ivls`). Using this as our `bedgraph` file (object `bg`), we can recompute our metagene to examine the distribution of randomly positioned RNA-PolII. But how would we plot the shuffled and the original ChIP-seq data on the same graph?

Shown below is an example metagene profile computed for 1 bedgraph. Each `.win_id` corresponds to one `bin` or `window` region surrounding the `TSS`. The first `.win_id` represents the mean coverage from the region -1000 to -990 for all TSS in the genome. The second `.win_id` represents regions -990 to -980 and so on. 

How would we modify our tibble to be able to plot multiple ChIP-Seq experiments?

```r
#> # A tibble: 201 x 2
#>    .win_id total_coverage
#>      <int>          <dbl>
#>  1       1       23.88922
#>  2       2       26.19525
#>  3       3       23.18755
#>  4       4       22.34402
#>  5       5       26.30945
#>  6       6       28.71125
#>  7       7       28.66961
#>  8       8       23.27538
#>  9       9       35.06543
#> 10      10       34.67965
#> # ... with 191 more rows
```

If we add another column that indicates the experiment, we can `facet`, or apply an `aesthetic` based on the experiment. 

```r
#> # A tibble: 402 x 3
#>    .win_id total_coverage experiment
#>      <int>          <dbl>      <dbl>
#>  1       1       23.88922          1
#>  2       1       23.88922          2
#>  3       2       26.19525          1
#>  4       2       26.19525          2
#>  5       3       23.18755          1
#>  6       3       23.18755          2
#>  7       4       22.34402          1
#>  8       4       22.34402          2
#>  9       5       26.30945          1
#> 10       5       26.30945          2
#> # ... with 392 more rows
```
…
