…
2. For each car in the tidy `mtcars` data set, calculate the mean (`mean()`) and variance (`var()`) for each variable. Try using `summarize()`, and `summarize_at()` or `summarize_all()`.

3. Plot `mpg` vs `cyl` for the `mtcars` data set. Which format should you use? The original data set, or the tidied one? Why? 

4. Using the provided `qpcr` data, plot the changes in gene expression over time. Use colors to represent genotypes and facets for the different genes. If that's too easy, add error bars (`geom_errorbar()`) and connect each point with a line (`geom_line()`).

# Too Easy?

If you found those exercises too easy, try these:

1. Tidy the `anscombe` data set. Your tidy data should look like:

```r 
# A tibble: 44 x 3
   set       x     y
   <chr> <dbl> <dbl>
 1 1         4  4.26
 2 1         5  5.68
 3 1         6  7.24
 4 1         7  4.82
 5 1         8  6.95
 6 1         9  8.81
 7 1        10  8.04
 8 1        11  8.33
 9 1        12 10.8 
10 1        13  7.58
# ... with 34 more rows
```
…
