…
# Overview

Here is a [link](https://raw.githubusercontent.com/rnabioco/eda/master/vignettes/exercises-1.Rmd) to the text of these exercises.

# Question 1

Tidy the `mtcars` data set. Note that car names are rownames in the built-in data, so they need to be moved to their own column prior to tibble conversion.

The tidied data should look like:

```
# A tibble: 352 x 3
                name   var value
               <chr> <chr> <dbl>
 1         Mazda RX4   mpg  21.0
 2     Mazda RX4 Wag   mpg  21.0
 3        Datsun 710   mpg  22.8
 4    Hornet 4 Drive   mpg  21.4
 5 Hornet Sportabout   mpg  18.7
 6           Valiant   mpg  18.1
 7        Duster 360   mpg  14.3
 8         Merc 240D   mpg  24.4
 9          Merc 230   mpg  22.8
10          Merc 280   mpg  19.2
# ... with 342 more rows
```
…
