Class 5: Genomic Interval Analysis part 2 • eda
…
Generate 100,000 random intervals of 100 bp each. Set the random number generator seed to 42 Use the genome R object above. Which chromosome has the most intervals?

Assign the random intervals produced in question 1 to a new object called random_ivls. Shuffle these intervals using bed_shuffle(), and supply a seed set to 42. How many intervals are now on chr1? Shuffle the random intervals (random_ivls) again, but set the within argument to TRUE. What effect does this have on the number of intervals per chromosome?

Use bed_shuffle() to generate a set of shuffled intervals for the RNA-PolII ChIP-Seq bedgraphs. Again set the seed argument to 42. Assign the output to an object named shuffled_coverage. Calculate the total number of basepairs covered in the shuffled and the original bed tibbles.

How to generate a metagene plot with multiple samples?

In the previous exercise we generated a shuffled bedgraph (shuffled_ivls). Using this as our bedgraph file (object bg), we can recompute our metagene to examine the distribution of randomly positioned RNA-PolII. But how would we plot the shuffled and the original ChIP-seq data on the same graph?

Shown below is an example metagene profile computed for 1 bedgraph. Each .win_id corresponds to one bin or window region surrounding the TSS. The first .win_id represents the mean coverage from the region -1000 to -990 for all TSS in the genome. The second .win_id represents regions -990 to -980 and so on.

How would we modify our tibble to be able to plot multiple ChIP-Seq experiments?

#> # A tibble: 201 x 2
#>    .win_id total_coverage
#>      <int>          <dbl>
#>  1       1       23.88922
#>  2       2       26.19525
#>  3       3       23.18755
#>  4       4       22.34402
#>  5       5       26.30945
#>  6       6       28.71125
#>  7       7       28.66961
#>  8       8       23.27538
#>  9       9       35.06543
#> 10      10       34.67965
#> # ... with 191 more rows

If we add another column that indicates the experiment, we can facet, or apply an aesthetic based on the experiment.

#> # A tibble: 402 x 3
#>    .win_id total_coverage experiment
#>      <int>          <dbl>      <dbl>
#>  1       1       23.88922          1
#>  2       1       23.88922          2
#>  3       2       26.19525          1
#>  4       2       26.19525          2
#>  5       3       23.18755          1
#>  6       3       23.18755          2
#>  7       4       22.34402          1
#>  8       4       22.34402          2
#>  9       5       26.30945          1
#> 10       5       26.30945          2
#> # ... with 392 more rows

bind_rows(), binds rows of multiple tibbles together

The dplyr function bind_rows() combines multiple tibbles together in a row-wise fashion. bind_cols binds tibbles together column-wise.

tibble_1 <- data_frame(id = seq(1, 100),
  measurement_1 = rnorm(100))
tibble_1
#> # A tibble: 100 x 2
#>       id measurement_1
#>    <int>         <dbl>
#>  1     1    0.66679462
#>  2     2    0.24049896
#>  3     3    1.55512874
#>  4     4   -0.75274870
#>  5     5    0.80749442
#>  6     6    0.25470467
#>  7     7    0.02687301
#>  8     8    1.53449670
#>  9     9    1.28550345
#> 10    10   -0.61429068
#> # ... with 90 more rows

tibble_2 <- data_frame(id = seq(1, 100),
  measurement_1 = rnorm(100))
tibble_2
#> # A tibble: 100 x 2
#>       id measurement_1
#>    <int>         <dbl>
#>  1     1     1.4841634
#>  2     2     0.5934025
#>  3     3     0.1297867
#>  4     4    -0.4987656
#>  5     5     0.2150065
#>  6     6     0.4736234
#>  7     7    -1.6283166
#>  8     8    -1.4868916
#>  9     9    -0.8753699
#> 10    10     1.4377516
#> # ... with 90 more rows

bind_rows(tibble_1, tibble_2)
#> # A tibble: 200 x 2
#>       id measurement_1
#>    <int>         <dbl>
#>  1     1    0.66679462
#>  2     2    0.24049896
#>  3     3    1.55512874
#>  4     4   -0.75274870
#>  5     5    0.80749442
#>  6     6    0.25470467
#>  7     7    0.02687301
#>  8     8    1.53449670
#>  9     9    1.28550345
#> 10    10   -0.61429068
#> # ... with 190 more rows

bind_rows(tibble_1, tibble_2, .id = "tibble_id")
#> # A tibble: 200 x 3
#>    tibble_id    id measurement_1
#>        <chr> <int>         <dbl>
#>  1         1     1    0.66679462
#>  2         1     2    0.24049896
#>  3         1     3    1.55512874
#>  4         1     4   -0.75274870
#>  5         1     5    0.80749442
#>  6         1     6    0.25470467
#>  7         1     7    0.02687301
#>  8         1     8    1.53449670
#>  9         1     9    1.28550345
#> 10         1    10   -0.61429068
#> # ... with 190 more rows
…
Lastly, let’s compute coverage for a shuffled bedgraph.

shuffled_coverage <- bed_shuffle(bg, genome, seed = 42)

shuffled <- bed_map(tss_windows, 
          shuffled_coverage,
          total_reads = sum(value)) %>% 
  group_by(.win_id) %>%
  summarize(total_coverage = mean(total_reads, na.rm = TRUE)) 

rnapolII
#> # A tibble: 201 x 2
#>    .win_id total_coverage
#>      <int>          <dbl>
#>  1       1       23.88922
#>  2       2       26.19525
#>  3       3       23.18755
#>  4       4       22.34402
#>  5       5       26.30945
#>  6       6       28.71125
#>  7       7       28.66961
#>  8       8       23.27538
#>  9       9       35.06543
#> 10      10       34.67965
#> # ... with 191 more rows

shuffled
#> # A tibble: 201 x 2
#>    .win_id total_coverage
#>      <int>          <dbl>
#>  1       1       2.998299
#>  2       2       4.265660
#>  3       3       2.352762
#>  4       4       3.682922
#>  5       5       2.937430
#>  6       6       3.082288
#>  7       7       1.839423
#>  8       8       2.165887
#>  9       9       3.044269
#> 10      10       2.049153
#> # ... with 191 more rows

Now we can bind these results together and we are ready to plot:

res <- bind_rows(rnapolII,
          shuffled,
          .id = "expt")
res
#> # A tibble: 402 x 3
#>     expt .win_id total_coverage
#>    <chr>   <int>          <dbl>
#>  1     1       1       23.88922
#>  2     1       2       26.19525
#>  3     1       3       23.18755
#>  4     1       4       22.34402
#>  5     1       5       26.30945
#>  6     1       6       28.71125
#>  7     1       7       28.66961
#>  8     1       8       23.27538
#>  9     1       9       35.06543
#> 10     1      10       34.67965
#> # ... with 392 more rows
…
compute_metagene(bg, genes, genome)
#> # A tibble: 201 x 2
#>    .win_id total_coverage
#>      <int>          <dbl>
#>  1       1       23.88922
#>  2       2       26.19525
#>  3       3       23.18755
#>  4       4       22.34402
#>  5       5       26.30945
#>  6       6       28.71125
#>  7       7       28.66961
#>  8       8       23.27538
#>  9       9       35.06543
#> 10      10       34.67965
#> # ... with 191 more rows
…
# make smaller bg 
small_bg <- sample_n(bg, 1e5)

bg1 <- bed_shuffle(small_bg, genome)
bg2 <- bed_shuffle(small_bg, genome)
bg3 <- bed_shuffle(small_bg, genome)

bgs <- list(bg1, 
            bg2,
            bg3)
            
res <- map(bgs, ~compute_metagene(.x, genes, genome))
res
#> [[1]]
#> # A tibble: 201 x 2
#>    .win_id total_coverage
#>      <int>          <dbl>
#>  1       1      0.8479167
#>  2       2      4.7904762
#>  3       3      0.9065217
#>  4       4      4.7795918
#>  5       5      4.1403846
#>  6       6      2.3000000
#>  7       7      6.1677419
#>  8       8      2.9953846
#>  9       9      7.5516667
#> 10      10      0.9807018
#> # ... with 191 more rows
#> 
#> [[2]]
#> # A tibble: 201 x 2
#>    .win_id total_coverage
#>      <int>          <dbl>
#>  1       1       4.665517
#>  2       2       9.992857
#>  3       3       3.770492
#>  4       4       2.020000
#>  5       5       2.292727
#>  6       6       6.014286
#>  7       7       1.310909
#>  8       8       2.226667
#>  9       9       4.430435
#> 10      10       0.887500
#> # ... with 191 more rows
#> 
#> [[3]]
#> # A tibble: 201 x 2
#>    .win_id total_coverage
#>      <int>          <dbl>
#>  1       1      0.5370370
#>  2       2      3.2555556
#>  3       3      0.4534884
#>  4       4      1.4900000
#>  5       5      1.0415094
#>  6       6      4.3157895
#>  7       7      0.8145161
#>  8       8      4.1476923
#>  9       9      8.9347222
#> 10      10      1.8328571
#> # ... with 191 more rows

Combining many tibbles

bind_rows() can bind any number of tibbles if the tibbles are supplied as a list(). This is very useful to combining many dataframes that are in a list into a format for plotting.

all_res <- bind_rows(res, .id = "expt")
all_res
#> # A tibble: 603 x 3
#>     expt .win_id total_coverage
#>    <chr>   <int>          <dbl>
#>  1     1       1      0.8479167
#>  2     1       2      4.7904762
#>  3     1       3      0.9065217
#>  4     1       4      4.7795918
#>  5     1       5      4.1403846
#>  6     1       6      2.3000000
#>  7     1       7      6.1677419
#>  8     1       8      2.9953846
#>  9     1       9      7.5516667
#> 10     1      10      0.9807018
#> # ... with 593 more rows
…
