Class 1: Overview and data wrangling • eda
…
Organizing samples.

How should you organize samples on your plate? Should -RT and +RT samples alternate? Where should I put my “no template” controls?

library(eda)
#> Loading required package: valr

qpcr
#> # A tibble: 145 x 6
#>     well fluor  target content       sample       cq
#>    <chr> <chr>   <chr>   <chr>        <chr>    <dbl>
#>  1   A01  SYBR IFNbeta Unkn-01      Control 31.82551
#>  2   A02  SYBR IFNbeta Unkn-02 Control_noRT 36.14470
#>  3   A03  SYBR IFNbeta Unkn-03         5ppp 18.45676
#>  4   A04  SYBR IFNbeta Unkn-04    5ppp_noRT      NaN
#>  5   A05  SYBR IFNbeta Unkn-05          3p1 19.01628
#>  6   A06  SYBR IFNbeta Unkn-06     3p1_noRT      NaN
#>  7   A07  SYBR IFNbeta Unkn-07          3p2 19.10928
#>  8   A08  SYBR IFNbeta Unkn-08     3p2_noRT      NaN
#>  9   A09  SYBR IFNbeta Unkn-09           2p 22.79299
#> 10   A10  SYBR IFNbeta Unkn-10      2p_noRT      NaN
#> # ... with 135 more rows
…
