Class 4: Genomic Interval Analysis part 1 • eda
…
tf_bed <- read_tsv(url, col_names = F)

Load data from file that is included in eda package

library(tidyverse)
library(eda)

file_name <- system.file("extdata", 
                         "wgEncodeRegTfbsClusteredV3.bed.gz", 
                         package = "eda")

tf_bed <- read_tsv(file_name, col_names = F)

tf_bed
#> # A tibble: 4,380,444 x 4
#>       X1     X2     X3     X4
#>    <chr>  <int>  <int>  <chr>
#>  1  chr1  10073  10329 ZBTB33
#>  2  chr1  10149  10413  CEBPB
#>  3  chr1  16110  16390   CTCF
#>  4  chr1  29198  29688   TAF1
#>  5  chr1  29275  29591  GABPA
#>  6  chr1  89795  90051   USF1
#>  7  chr1  91156  91580   CTCF
#>  8  chr1 104859 105089   CTCF
#>  9  chr1 138850 139274   CTCF
#> 10  chr1 235541 235877    SP1
#> # ... with 4,380,434 more rows

Fixing column names

new_names <- c(
  "chrom",
  "start",
  "end",
  "TF"
)

colnames(tf_bed) <- new_names
tf_bed
#> # A tibble: 4,380,444 x 4
#>    chrom  start    end     TF
#>    <chr>  <int>  <int>  <chr>
#>  1  chr1  10073  10329 ZBTB33
#>  2  chr1  10149  10413  CEBPB
#>  3  chr1  16110  16390   CTCF
#>  4  chr1  29198  29688   TAF1
#>  5  chr1  29275  29591  GABPA
#>  6  chr1  89795  90051   USF1
#>  7  chr1  91156  91580   CTCF
#>  8  chr1 104859 105089   CTCF
#>  9  chr1 138850 139274   CTCF
#> 10  chr1 235541 235877    SP1
#> # ... with 4,380,434 more rows
…
valr includes many functions for manipulating, comparing, and randomizing interval data. The documentation contains a list of all of the available functions.

How many SNPs in TF binding sites?

First obtain a bed file of SNPs:

library(valr)
snp_file <- system.file("extdata", 
                        "hg19.snps147.chr22.bed.gz", 
                        package = "valr")

snps <- read_bed(snp_file, 
                 n_fields = 6)
snps
#> # A tibble: 10,000 x 6
#>    chrom    start      end        name score strand
#>    <chr>    <int>    <int>       <chr> <chr>  <chr>
#>  1 chr22 16053247 16053248 rs587721086     0      +
#>  2 chr22 16053443 16053444  rs80167676     0      +
#>  3 chr22 16055964 16055965 rs587706951     0      +
#>  4 chr22 16069373 16069374   rs2154787     0      +
#>  5 chr22 16069782 16069783   rs1963212     0      +
#>  6 chr22 16100513 16100514   rs8140563     0      +
#>  7 chr22 16114622 16114623 rs558374111     0      +
#>  8 chr22 16115181 16115182 rs567521927     0      +
#>  9 chr22 16115377 16115378 rs538733846     0      +
#> 10 chr22 16121639 16121640 rs544560983     0      +
#> # ... with 9,990 more rows

snps_in_tfs <- bed_intersect(tf_bed, snps) 

snps_in_tfs
#> # A tibble: 8,851 x 10
#>    chrom  start.x    end.x  TF.x  start.y    end.y      name.y score.y
#>    <chr>    <int>    <int> <chr>    <int>    <int>       <chr>   <chr>
#>  1 chr22 16872262 16872686  CTCF 16872280 16872281    rs131546       0
#>  2 chr22 16921734 16922262  CTCF 16921912 16921913 rs575577088       0
#>  3 chr22 16921781 16922105 CEBPB 16921912 16921913 rs575577088       0
#>  4 chr22 16921808 16922078  SMC3 16921912 16921913 rs575577088       0
#>  5 chr22 17024669 17024969 NR3C1 17024865 17024866   rs2379966       0
#>  6 chr22 17044937 17045357  TAF1 17045002 17045003 rs536197102       0
#>  7 chr22 17083377 17084311 RBBP5 17083589 17083590   rs2236640       0
#>  8 chr22 17083465 17083650   MAX 17083589 17083590   rs2236640       0
#>  9 chr22 17083520 17084322  UBTF 17083589 17083590   rs2236640       0
#> 10 chr22 17083536 17084046 SAP30 17083589 17083590   rs2236640       0
#> # ... with 8,841 more rows, and 2 more variables: strand.y <chr>,
#> #   .overlap <int>

How close are SNPs to transcription start sites?

The bed_closest() function finds the closest intervals between two sets of intervals.

First read in a BED file that contains genes in the human genome (hg19 build).

gene_file <- system.file("extdata", 
                        "hg19_genes.bed.gz", 
                        package = "eda")

genes <- read_bed(gene_file, 
                 n_fields = 6)
genes
#> # A tibble: 55,006 x 6
#>    chrom start   end         name score strand
#>    <chr> <int> <int>        <chr> <chr>  <chr>
#>  1  chr1 11868 14362 LOC102725121     3      +
#>  2  chr1 11873 14409      DDX11L1     3      +
#>  3  chr1 14361 29370       WASH7P    11      -
#>  4  chr1 17368 17436    MIR6859-1     1      -
#>  5  chr1 17368 17436    MIR6859-2     1      -
#>  6  chr1 17368 17436    MIR6859-3     1      -
#>  7  chr1 17368 17436    MIR6859-4     1      -
#>  8  chr1 30365 30503    MIR1302-2     1      +
#>  9  chr1 30365 30503    MIR1302-9     1      +
#> 10  chr1 30365 30503   MIR1302-10     1      +
#> # ... with 54,996 more rows

Next we’ll generate a set of transcription start sites for each gene. The start site depends on the strand of the interval. Here for simplicity we will only look at intervals from the plus strand. If you want to keep the minus strand you need to use ifelse() in the mutate() call to conditionally define the start and end based on strand.

tss <- filter(genes, strand == "+") %>% 
  mutate(end = start + 1)
              
tss
#> # A tibble: 28,035 x 6
#>    chrom  start    end         name score strand
#>    <chr>  <int>  <dbl>        <chr> <chr>  <chr>
#>  1  chr1  11868  11869 LOC102725121     3      +
#>  2  chr1  11873  11874      DDX11L1     3      +
#>  3  chr1  30365  30366    MIR1302-2     1      +
#>  4  chr1  30365  30366    MIR1302-9     1      +
#>  5  chr1  30365  30366   MIR1302-10     1      +
#>  6  chr1  30365  30366   MIR1302-11     1      +
#>  7  chr1  69090  69091        OR4F5     1      +
#>  8  chr1 323891 323892 LOC100132287     3      +
#>  9  chr1 323891 323892 LOC100132062     3      +
#> 10  chr1 323891 323892 LOC100133331     4      +
#> # ... with 28,025 more rows

Lastly, we will use the bed_closest() tool to find the closest TSS to each SNP.

bed_closest(snps, tss) %>% 
  select(chrom:strand.x, name.y, .overlap, .dist)
#> # A tibble: 14,019 x 9
#>    chrom  start.x    end.x      name.x score.x strand.x  name.y .overlap
#>    <chr>    <int>    <int>       <chr>   <chr>    <chr>   <chr>    <int>
#>  1 chr22 16053247 16053248 rs587721086       0        + BMS1P22        0
#>  2 chr22 16053443 16053444  rs80167676       0        + BMS1P22        0
#>  3 chr22 16055964 16055965 rs587706951       0        + BMS1P22        0
#>  4 chr22 16069373 16069374   rs2154787       0        + BMS1P22        0
#>  5 chr22 16069782 16069783   rs1963212       0        + BMS1P22        0
#>  6 chr22 16100513 16100514   rs8140563       0        + BMS1P22        0
#>  7 chr22 16114622 16114623 rs558374111       0        + BMS1P22        0
#>  8 chr22 16115181 16115182 rs567521927       0        + BMS1P22        0
#>  9 chr22 16115377 16115378 rs538733846       0        + BMS1P22        0
#> 10 chr22 16121639 16121640 rs544560983       0        + BMS1P22        0
#> # ... with 14,009 more rows, and 1 more variables: .dist <int>
…
