Exercises 3 • eda
…
The Encode project has performed eCLIP experiments to map RNA binding protein (RBP) binding sites for > 100 RBPs. Go to the Encode website, search for eCLIP experiments, select an RBP eClip experiment, and load a BED file (bed narrowPeak file format) with the binding sites into R using just the url.

Use the read_narrowPeak() function from valr to read in your bed file using just the URL. Do not download the file locally.

Also, make sure that the file was generated using the hg19 genome build, and that you do not select the eCLIP mock input samples, which are negative controls. Display the bed tibble that you pulled from the Encode database and give a one to two sentence summary about the known functions of the RBP.

Here’s an example. An eClip experiment for PTPB1 was performed (info here. I selected hg19 and in the file details menu and selected a bed narrowPeak file here. I copied the URL by right-clicking on Download ENCFF471GJ and selecting copy link address. Note that the extension of the file in the URL that you use should be .bed.gz, do not use bigBed, fastq, bam, or bigWig files.

library(valr)
url <- "https://www.encodeproject.org/files/ENCFF471GJE/@@download/ENCFF471GJE.bed.gz"

read_narrowpeak(url)

## # A tibble: 229,446 x 10
##    chrom     start       end              name score strand   signal
##    <chr>     <int>     <int>             <chr> <int>  <chr>    <dbl>
##  1  chr7  98479380  98479408 PTBP1_HepG2_rep01  1000      + 4.114247
##  2  chr7  94298932  94298976 PTBP1_HepG2_rep01  1000      + 3.698511
##  3  chr7  98479417  98479421 PTBP1_HepG2_rep01  1000      + 3.654315
##  4  chr7  98479439  98479445 PTBP1_HepG2_rep01  1000      + 3.549617
##  5  chr7  98479445  98479471 PTBP1_HepG2_rep01  1000      + 3.540029
##  6  chr7  98479429  98479439 PTBP1_HepG2_rep01  1000      + 3.490715
##  7  chr7  94298901  94298932 PTBP1_HepG2_rep01  1000      + 3.414660
##  8  chr7  98479408  98479417 PTBP1_HepG2_rep01  1000      + 3.614998
##  9  chr7 104691135 104691224 PTBP1_HepG2_rep01  1000      + 5.400467
## 10  chr7  98479421  98479429 PTBP1_HepG2_rep01  1000      + 3.349229
## # ... with 229,436 more rows, and 3 more variables: pvalue <dbl>,
## #   qvalue <dbl>, peak <int>
…
