mtcars in tibble format — mtcars_tbl • eda
…
    mtcars in tibble format

    mtcars in tibble format

mtcars_tbl

    Format

    An object of class tbl_df (inherits from tbl, data.frame) with 32 rows and 12 columns.

    Examples

mtcars_tbl
#> # A tibble: 32 x 12
#>                 name   mpg   cyl  disp    hp  drat    wt  qsec    vs    am
#>                <chr> <dbl> <dbl> <dbl> <dbl> <dbl> <dbl> <dbl> <dbl> <dbl>
#>  1         Mazda RX4  21.0     6 160.0   110  3.90 2.620 16.46     0     1
#>  2     Mazda RX4 Wag  21.0     6 160.0   110  3.90 2.875 17.02     0     1
#>  3        Datsun 710  22.8     4 108.0    93  3.85 2.320 18.61     1     1
#>  4    Hornet 4 Drive  21.4     6 258.0   110  3.08 3.215 19.44     1     0
#>  5 Hornet Sportabout  18.7     8 360.0   175  3.15 3.440 17.02     0     0
#>  6           Valiant  18.1     6 225.0   105  2.76 3.460 20.22     1     0
#>  7        Duster 360  14.3     8 360.0   245  3.21 3.570 15.84     0     0
#>  8         Merc 240D  24.4     4 146.7    62  3.69 3.190 20.00     1     0
#>  9          Merc 230  22.8     4 140.8    95  3.92 3.150 22.90     1     0
#> 10          Merc 280  19.2     6 167.6   123  3.92 3.440 18.30     1     0
#> # ... with 22 more rows, and 2 more variables: gear <dbl>, carb <dbl>
…
