Class 1: Course Overview | Data Import and Tidying • pbda
…
read functions

Alternatively you can use functions in readr and readxl to load data on the console or within an RMarkdown report. All of the functions have read_* prefixes.

library(readr)
read_csv(readr_example("mtcars.csv"))
#> Rows: 32 Columns: 11
#> ── Column specification ──────────────────────────────────────────────────
#> Delimiter: ","
#> dbl (11): mpg, cyl, disp, hp, drat, wt, qsec, vs, am, gear, carb
#> 
#> ℹ Use `spec()` to retrieve the full column specification for this data.
#> ℹ Specify the column types or set `show_col_types = FALSE` to quiet this message.
#> # A tibble: 32 × 11
#>      mpg   cyl  disp    hp  drat    wt  qsec    vs    am  gear  carb
#>    <dbl> <dbl> <dbl> <dbl> <dbl> <dbl> <dbl> <dbl> <dbl> <dbl> <dbl>
#>  1  21       6  160    110  3.9   2.62  16.5     0     1     4     4
#>  2  21       6  160    110  3.9   2.88  17.0     0     1     4     4
#>  3  22.8     4  108     93  3.85  2.32  18.6     1     1     4     1
#>  4  21.4     6  258    110  3.08  3.22  19.4     1     0     3     1
#>  5  18.7     8  360    175  3.15  3.44  17.0     0     0     3     2
#>  6  18.1     6  225    105  2.76  3.46  20.2     1     0     3     1
#>  7  14.3     8  360    245  3.21  3.57  15.8     0     0     3     4
#>  8  24.4     4  147.    62  3.69  3.19  20       1     0     4     2
#>  9  22.8     4  141.    95  3.92  3.15  22.9     1     0     4     2
#> 10  19.2     6  168.   123  3.92  3.44  18.3     1     0     4     4
#> # … with 22 more rows

library(readxl)
read_excel(readxl_example("datasets.xlsx"))
#> # A tibble: 150 × 5
#>    Sepal.Length Sepal.Width Petal.Length Petal.Width Species
#>           <dbl>       <dbl>        <dbl>       <dbl> <chr>  
#>  1          5.1         3.5          1.4         0.2 setosa 
#>  2          4.9         3            1.4         0.2 setosa 
#>  3          4.7         3.2          1.3         0.2 setosa 
#>  4          4.6         3.1          1.5         0.2 setosa 
#>  5          5           3.6          1.4         0.2 setosa 
#>  6          5.4         3.9          1.7         0.4 setosa 
#>  7          4.6         3.4          1.4         0.3 setosa 
#>  8          5           3.4          1.5         0.2 setosa 
#>  9          4.4         2.9          1.4         0.2 setosa 
#> 10          4.9         3.1          1.5         0.1 setosa 
#> # … with 140 more rows
…
A tibble is similar to a data.frame with some important differences. A tibble provides a quick overview of your data including its structure (rows and columns) and column types. Use as_tibble() to convert a data.frame:

head(iris)
#>   Sepal.Length Sepal.Width Petal.Length Petal.Width Species
#> 1          5.1         3.5          1.4         0.2  setosa
#> 2          4.9         3.0          1.4         0.2  setosa
#> 3          4.7         3.2          1.3         0.2  setosa
#> 4          4.6         3.1          1.5         0.2  setosa
#> 5          5.0         3.6          1.4         0.2  setosa
#> 6          5.4         3.9          1.7         0.4  setosa

library(tidyverse)
as_tibble(iris)
#> # A tibble: 150 × 5
#>    Sepal.Length Sepal.Width Petal.Length Petal.Width Species
#>           <dbl>       <dbl>        <dbl>       <dbl> <fct>  
#>  1          5.1         3.5          1.4         0.2 setosa 
#>  2          4.9         3            1.4         0.2 setosa 
#>  3          4.7         3.2          1.3         0.2 setosa 
#>  4          4.6         3.1          1.5         0.2 setosa 
#>  5          5           3.6          1.4         0.2 setosa 
#>  6          5.4         3.9          1.7         0.4 setosa 
#>  7          4.6         3.4          1.4         0.3 setosa 
#>  8          5           3.4          1.5         0.2 setosa 
#>  9          4.4         2.9          1.4         0.2 setosa 
#> 10          4.9         3.1          1.5         0.1 setosa 
#> # … with 140 more rows

The tidyr package

The tidyr package has useful functions to format data for efficient analysis. See the cheat sheet for reference.

gather and spread

These are the workhorse functions in tidyr. Use gather when variables are in columns and you want them in tidy format.

library(pbda)
# column names in "wide" format are variables
mtcars_tbl
#> # A tibble: 32 × 12
#>    name    mpg   cyl  disp    hp  drat    wt  qsec    vs    am  gear  carb
#>    <chr> <dbl> <dbl> <dbl> <dbl> <dbl> <dbl> <dbl> <dbl> <dbl> <dbl> <dbl>
#>  1 Mazd…  21       6  160    110  3.9   2.62  16.5     0     1     4     4
#>  2 Mazd…  21       6  160    110  3.9   2.88  17.0     0     1     4     4
#>  3 Dats…  22.8     4  108     93  3.85  2.32  18.6     1     1     4     1
#>  4 Horn…  21.4     6  258    110  3.08  3.22  19.4     1     0     3     1
#>  5 Horn…  18.7     8  360    175  3.15  3.44  17.0     0     0     3     2
#>  6 Vali…  18.1     6  225    105  2.76  3.46  20.2     1     0     3     1
#>  7 Dust…  14.3     8  360    245  3.21  3.57  15.8     0     0     3     4
#>  8 Merc…  24.4     4  147.    62  3.69  3.19  20       1     0     4     2
#>  9 Merc…  22.8     4  141.    95  3.92  3.15  22.9     1     0     4     2
#> 10 Merc…  19.2     6  168.   123  3.92  3.44  18.3     1     0     4     4
#> # … with 22 more rows

# gather variables and observations into `key` and `value` columns - so-called "long" format
xx <- mtcars_tbl %>% gather(key, value, -name)
xx
#> # A tibble: 352 × 3
#>    name              key   value
#>    <chr>             <chr> <dbl>
#>  1 Mazda RX4         mpg    21  
#>  2 Mazda RX4 Wag     mpg    21  
#>  3 Datsun 710        mpg    22.8
#>  4 Hornet 4 Drive    mpg    21.4
#>  5 Hornet Sportabout mpg    18.7
#>  6 Valiant           mpg    18.1
#>  7 Duster 360        mpg    14.3
#>  8 Merc 240D         mpg    24.4
#>  9 Merc 230          mpg    22.8
#> 10 Merc 280          mpg    19.2
#> # … with 342 more rows

# and convert back to "wide" format
xx %>% spread(key, value)
#> # A tibble: 32 × 12
#>    name     am  carb   cyl  disp  drat  gear    hp   mpg  qsec    vs    wt
#>    <chr> <dbl> <dbl> <dbl> <dbl> <dbl> <dbl> <dbl> <dbl> <dbl> <dbl> <dbl>
#>  1 AMC …     0     2     8 304    3.15     3   150  15.2  17.3     0  3.44
#>  2 Cadi…     0     4     8 472    2.93     3   205  10.4  18.0     0  5.25
#>  3 Cama…     0     4     8 350    3.73     3   245  13.3  15.4     0  3.84
#>  4 Chry…     0     4     8 440    3.23     3   230  14.7  17.4     0  5.34
#>  5 Dats…     1     1     4 108    3.85     4    93  22.8  18.6     1  2.32
#>  6 Dodg…     0     2     8 318    2.76     3   150  15.5  16.9     0  3.52
#>  7 Dust…     0     4     8 360    3.21     3   245  14.3  15.8     0  3.57
#>  8 Ferr…     1     6     6 145    3.62     5   175  19.7  15.5     0  2.77
#>  9 Fiat…     1     1     4  78.7  4.08     4    66  32.4  19.5     1  2.2 
#> 10 Fiat…     1     1     4  79    4.08     4    66  27.3  18.9     1  1.94
#> # … with 22 more rows
…
separate and unite

separate takes a column containing multiple variables on input and returns multiple columns, each with a new variable. For example, a column with year/month/day information can be separated into invidual columns.

ys <- 1999:2002
ms <- c('Jan', 'Feb', 'Mar')
ds <- 1:10

dates <- tidyr::crossing(ys, ms, ds) %>% unite(date, ys:ds, sep = '-')

separate

dates
#> # A tibble: 120 × 1
#>    date       
#>    <chr>      
#>  1 1999-Feb-1 
#>  2 1999-Feb-2 
#>  3 1999-Feb-3 
#>  4 1999-Feb-4 
#>  5 1999-Feb-5 
#>  6 1999-Feb-6 
#>  7 1999-Feb-7 
#>  8 1999-Feb-8 
#>  9 1999-Feb-9 
#> 10 1999-Feb-10
#> # … with 110 more rows

# separate is the inverse of unite
dates %>% separate(date, into = c('year', 'month', 'day'), sep = '-')
#> # A tibble: 120 × 3
#>    year  month day  
#>    <chr> <chr> <chr>
#>  1 1999  Feb   1    
#>  2 1999  Feb   2    
#>  3 1999  Feb   3    
#>  4 1999  Feb   4    
#>  5 1999  Feb   5    
#>  6 1999  Feb   6    
#>  7 1999  Feb   7    
#>  8 1999  Feb   8    
#>  9 1999  Feb   9    
#> 10 1999  Feb   10   
#> # … with 110 more rows
…
crossing and complete

crossing is useful for generating combinations of variables in tibble format. For example, use crossing to generate combinations of experimental varaibles including sample names, gene names, reaction conditions, and replicates.

genotype <- c('wt', 'mut')
gene <- c('IFN', 'ACTIN')
time <- c(0, 12, 24, 48)
rt <- c('+', '-') # reverse transcriptase added?
rep <- 1:3

samples <- tidyr::crossing(genotype, gene, time, rep, rt)

samples
#> # A tibble: 96 × 5
#>    genotype gene   time   rep rt   
#>    <chr>    <chr> <dbl> <int> <chr>
#>  1 mut      ACTIN     0     1 -    
#>  2 mut      ACTIN     0     1 +    
#>  3 mut      ACTIN     0     2 -    
#>  4 mut      ACTIN     0     2 +    
#>  5 mut      ACTIN     0     3 -    
#>  6 mut      ACTIN     0     3 +    
#>  7 mut      ACTIN    12     1 -    
#>  8 mut      ACTIN    12     1 +    
#>  9 mut      ACTIN    12     2 -    
#> 10 mut      ACTIN    12     2 +    
#> # … with 86 more rows
…
Sample names

All variables should be systematically listed in your sample names, i.e. name_rep_time_RT. Systematic naming makes it easy to extract relevant information.

Take this example, where the sample names are a combination of a genotype (WT and MT), a time point (0,4,8,24 hour), and a replicate (1,2,3), separated by a hyphen.

#> # A tibble: 24 × 2
#>    sample.name value
#>    <chr>       <int>
#>  1 MT-t0-1        71
#>  2 MT-t0-2        77
#>  3 MT-t0-3        51
#>  4 MT-t24-1       88
#>  5 MT-t24-2       50
#>  6 MT-t24-3       90
#>  7 MT-t4-1        67
#>  8 MT-t4-2         9
#>  9 MT-t4-3        84
#> 10 MT-t8-1        29
#> # … with 14 more rows

Extracting sample names

Because the samples have systematic names, it is easy to separate this information into individual columns.

sample_info <- samples %>%
  tidyr::separate(
    sample.name,
    into = c('sample', 'hour', 'rep'),
    sep = "-"
  )

sample_info
#> # A tibble: 24 × 4
#>    sample hour  rep   value
#>    <chr>  <chr> <chr> <int>
#>  1 MT     t0    1        71
#>  2 MT     t0    2        77
#>  3 MT     t0    3        51
#>  4 MT     t24   1        88
#>  5 MT     t24   2        50
#>  6 MT     t24   3        90
#>  7 MT     t4    1        67
#>  8 MT     t4    2         9
#>  9 MT     t4    3        84
#> 10 MT     t8    1        29
#> # … with 14 more rows
…
We will use tidying concepts to prepare this data for efficient analysis and visualization.

qPCR data tidying

Tidy qpcr_data and qpcr_names into a structure like:

#> # A tibble: 96 × 3
#>    row   col     exp
#>    <chr> <chr> <dbl>
#>  1 A     1       2.6
#>  2 B     1       0  
#>  3 C     1       1.6
#>  4 D     1       0  
#>  5 E     1       2.8
#>  6 F     1       0  
#>  7 G     1      12  
#>  8 H     1       0  
#>  9 A     2      10.5
#> 10 B     2       0  
#> # … with 86 more rows

Sample names

Separate variables into new columns in qpcr_names_tidy.

#> # A tibble: 96 × 7
#>    row   col   sample time  gene  rt    rep  
#>    <chr> <chr> <chr>  <chr> <chr> <chr> <chr>
#>  1 A     1     mut    0     ACTIN +     1    
#>  2 B     1     mut    0     ACTIN -     1    
#>  3 C     1     mut    0     ACTIN +     2    
#>  4 D     1     mut    0     ACTIN -     2    
#>  5 E     1     mut    0     ACTIN +     3    
#>  6 F     1     mut    0     ACTIN -     3    
#>  7 G     1     mut    0     IFN   +     1    
#>  8 H     1     mut    0     IFN   -     1    
#>  9 A     2     mut    0     IFN   +     2    
#> 10 B     2     mut    0     IFN   -     2    
#> # … with 86 more rows

Data joining

Join the tidied data together.

#> Joining, by = c("row", "col")
#> # A tibble: 96 × 8
#>    row   col   sample time  gene  rt    rep     exp
#>    <chr> <chr> <chr>  <chr> <chr> <chr> <chr> <dbl>
#>  1 A     1     mut    0     ACTIN +     1       2.6
#>  2 B     1     mut    0     ACTIN -     1       0  
#>  3 C     1     mut    0     ACTIN +     2       1.6
#>  4 D     1     mut    0     ACTIN -     2       0  
#>  5 E     1     mut    0     ACTIN +     3       2.8
#>  6 F     1     mut    0     ACTIN -     3       0  
#>  7 G     1     mut    0     IFN   +     1      12  
#>  8 H     1     mut    0     IFN   -     1       0  
#>  9 A     2     mut    0     IFN   +     2      10.5
#> 10 B     2     mut    0     IFN   -     2       0  
#> # … with 86 more rows
…
Exercises

Tidy the mtcars data set. Note that car names are rownames in the built-in data, so they need to be moved to their own column prior to tibble conversion. You can use tibble:rownames_to_column() for this purpose.

The tidied data should look something like:

#> # A tibble: 352 × 3
#>    name              var   value
#>    <chr>             <chr> <dbl>
#>  1 Mazda RX4         mpg    21  
#>  2 Mazda RX4 Wag     mpg    21  
#>  3 Datsun 710        mpg    22.8
#>  4 Hornet 4 Drive    mpg    21.4
#>  5 Hornet Sportabout mpg    18.7
#>  6 Valiant           mpg    18.1
#>  7 Duster 360        mpg    14.3
#>  8 Merc 240D         mpg    24.4
#>  9 Merc 230          mpg    22.8
#> 10 Merc 280          mpg    19.2
#> # … with 342 more rows

For each car in the tidy mtcars data set, calculate the mean (mean()) and variance (var()) for each variable. Try using summarize(), and summarize_at() or summarize_all().

Plot mpg vs cyl for the mtcars data set. Which format should you use? The original data set, or the tidied one? Why?

Using the provided qpcr data, plot the changes in gene expression over time. Use colors to represent genotypes and facets for the different genes. If that’s too easy, add error bars (geom_errorbar()) and connect each point with a line (geom_line()).

Too Easy?

If you found those exercises too easy, try these:

Tidy the anscombe data set. Your tidy data should look like:

# A tibble: 44 x 3
   set       x     y
   <chr> <dbl> <dbl>
 1 1         4  4.26
 2 1         5  5.68
 3 1         6  7.24
 4 1         7  4.82
 5 1         8  6.95
 6 1         9  8.81
 7 1        10  8.04
 8 1        11  8.33
 9 1        12 10.8 
10 1        13  7.58
# ... with 34 more rows
…
