Class 3: Exploring a biological data set • pbda
…
Zeroes, NA, NaN and NULL

Don’t use use zeroes to represent missing data. 0 is valid observed value.

NA (Not Available) is most often use to represent missing data.

NaN (Not a Number) is the result of an undefined operation, e.g. 0 / 0.

NULL means “undefined” and is only used in a programming context (i.e., a function that returns NULL). You can’t put NULL values in a data frame.

Let’s examine a data frame with some missing data.

missing_ex
#> # A tibble: 30 × 5
#>    group    id name  value1 value2
#>    <dbl> <dbl> <chr>  <dbl>  <int>
#>  1     0     0 d         NA     NA
#>  2     0     1 a         NA     NA
#>  3     0     2 b         NA     NA
#>  4     0     2 c         NA      8
#>  5     0     3 NA        NA     NA
#>  6     0    NA b         NA     NA
#>  7     1     0 d         NA     NA
#>  8     1     1 a          1     NA
#>  9     1     2 b         NA     NA
#> 10     1     2 c         NA     NA
#> # … with 20 more rows
…
# find rows where name is NA
missing_ex %>% filter(is.na(name))
#> # A tibble: 5 × 5
#>   group    id name  value1 value2
#>   <dbl> <dbl> <chr>  <dbl>  <int>
#> 1     0     3 NA        NA     NA
#> 2     1     3 NA        NA     NA
#> 3     2     3 NA        NA     NA
#> 4     3     3 NA         3      6
#> 5     4     3 NA        NA     NA

# find rows where id is *not* NA
missing_ex %>% filter(!is.na(id))
#> # A tibble: 25 × 5
#>    group    id name  value1 value2
#>    <dbl> <dbl> <chr>  <dbl>  <int>
#>  1     0     0 d         NA     NA
#>  2     0     1 a         NA     NA
#>  3     0     2 b         NA     NA
#>  4     0     2 c         NA      8
#>  5     0     3 NA        NA     NA
#>  6     1     0 d         NA     NA
#>  7     1     1 a          1     NA
#>  8     1     2 b         NA     NA
#>  9     1     2 c         NA     NA
#> 10     1     3 NA        NA     NA
#> # … with 15 more rows
…
You can also use the View() function to examine the data in a spreadsheet-like viewer.

sorted %>% View()

Sampling rows

Use sample_n() and sample_frac() to randomly select rows from a large data set. Get a reproducible sample using set.seed()

brauer_gene_exp
#> # A tibble: 198,430 × 7
#>    name    BP              MF    systematic_name nutrient  rate expression
#>    <chr>   <chr>           <chr> <chr>           <chr>    <dbl>      <dbl>
#>  1 "SFB2"  ER to Golgi tr… mole… YNL049C         Glucose   0.05      -0.24
#>  2 ""      biological pro… mole… YNL095C         Glucose   0.05       0.28
#>  3 "QRI7"  proteolysis an… meta… YDL104C         Glucose   0.05      -0.02
#>  4 "CFT2"  mRNA polyadeny… RNA … YLR115W         Glucose   0.05      -0.33
#>  5 "SSO2"  vesicle fusion* t-SN… YMR183C         Glucose   0.05       0.05
#>  6 "PSP2"  biological pro… mole… YML017W         Glucose   0.05      -0.69
#>  7 "RIB2"  riboflavin bio… pseu… YOL066C         Glucose   0.05      -0.55
#>  8 "VMA13" vacuolar acidi… hydr… YPR036W         Glucose   0.05      -0.75
#>  9 "EDC3"  deadenylylatio… mole… YEL015W         Glucose   0.05      -0.24
#> 10 "VPS5"  protein retent… prot… YOR069W         Glucose   0.05      -0.16
#> # … with 198,420 more rows

# sample 1e5 rows
set.seed(1234)
brauer_gene_exp %>% sample_n(1e3)
#> # A tibble: 1,000 × 7
#>    name     BP             MF    systematic_name nutrient  rate expression
#>    <chr>    <chr>          <chr> <chr>           <chr>    <dbl>      <dbl>
#>  1 "OST4"   "protein amin… "pro… YDL232W         Sulfate   0.1        0.11
#>  2 ""       "biological p… "mol… YHR003C         Ammonia   0.1       -0.2 
#>  3 "FRE2"   "iron ion tra… "fer… YKL220C         Leucine   0.15       0.95
#>  4 ""       "transport"    "tra… YOR071C         Ammonia   0.05      -0.76
#>  5 "COS111" "signal trans… "mol… YBR203W         Sulfate   0.25      -0.81
#>  6 ""       ""             ""    YBL077W         Sulfate   0.2        0.48
#>  7 ""       "biological p… "pro… YGR203W         Phospha…  0.2       -1.85
#>  8 "CWP2"   "cell wall or… "str… YKL096W-A       Phospha…  0.15       0.56
#>  9 "COX5B"  "mitochondria… "cyt… YIL111W         Phospha…  0.2        2.42
#> 10 ""       ""             ""    YJL009W         Ammonia   0.25       0.09
#> # … with 990 more rows

# sample 10% of the rows
set.seed(1234)
brauer_gene_exp %>% sample_frac(0.1)
#> # A tibble: 19,843 × 7
#>    name     BP             MF    systematic_name nutrient  rate expression
#>    <chr>    <chr>          <chr> <chr>           <chr>    <dbl>      <dbl>
#>  1 "OST4"   "protein amin… "pro… YDL232W         Sulfate   0.1        0.11
#>  2 ""       "biological p… "mol… YHR003C         Ammonia   0.1       -0.2 
#>  3 "FRE2"   "iron ion tra… "fer… YKL220C         Leucine   0.15       0.95
#>  4 ""       "transport"    "tra… YOR071C         Ammonia   0.05      -0.76
#>  5 "COS111" "signal trans… "mol… YBR203W         Sulfate   0.25      -0.81
#>  6 ""       ""             ""    YBL077W         Sulfate   0.2        0.48
#>  7 ""       "biological p… "pro… YGR203W         Phospha…  0.2       -1.85
#>  8 "CWP2"   "cell wall or… "str… YKL096W-A       Phospha…  0.15       0.56
#>  9 "COX5B"  "mitochondria… "cyt… YIL111W         Phospha…  0.2        2.42
#> 10 ""       ""             ""    YJL009W         Ammonia   0.25       0.09
#> # … with 19,833 more rows
…
We will use two datasets brauer_gene_exp and yeast_prot_prop to illustrate how data from related tables can be combined using joining operations.

brauer_gene_exp contains gene expression data from yeast grown under different nutrient limitation conditions.

yeast_prot_prop contains descriptive data for yeast proteins.

Examine the two tables and identify common variables for linking. If the variables have different names, Use the by argument to left_join() to specify common variables.

gene_exp_rate <- brauer_gene_exp %>% select(systematic_name, rate, expression)
gene_mw <- yeast_prot_prop %>% select(ORF, Mw)

# Find rows from gene_exp_rate with a match in gene_mw and return all variables
left_join(gene_exp_rate, gene_mw, by = c("systematic_name" = "ORF"))
#> # A tibble: 198,430 × 4
#>    systematic_name  rate expression     Mw
#>    <chr>           <dbl>      <dbl>  <dbl>
#>  1 YNL049C          0.05      -0.24 98919.
#>  2 YNL095C          0.05       0.28 71197.
#>  3 YDL104C          0.05      -0.02 45545.
#>  4 YLR115W          0.05      -0.33 96256 
#>  5 YMR183C          0.05       0.05 33717.
#>  6 YML017W          0.05      -0.69 65589 
#>  7 YOL066C          0.05      -0.55 67028.
#>  8 YPR036W          0.05      -0.75 54409.
#>  9 YEL015W          0.05      -0.24 61336.
#> 10 YOR069W          0.05      -0.16 76460.
#> # … with 198,420 more rows

# Find rows from gene_exp_rate with a match in gene_mw and return only the gene_exp_rate variables
semi_join(gene_exp_rate, gene_mw, by = c("systematic_name" = "ORF"))
#> # A tibble: 197,543 × 3
#>    systematic_name  rate expression
#>    <chr>           <dbl>      <dbl>
#>  1 YNL049C          0.05      -0.24
#>  2 YNL095C          0.05       0.28
#>  3 YDL104C          0.05      -0.02
#>  4 YLR115W          0.05      -0.33
#>  5 YMR183C          0.05       0.05
#>  6 YML017W          0.05      -0.69
#>  7 YOL066C          0.05      -0.55
#>  8 YPR036W          0.05      -0.75
#>  9 YEL015W          0.05      -0.24
#> 10 YOR069W          0.05      -0.16
#> # … with 197,533 more rows

# Find rows from gene_exp_rate *without* a match in gene_mw
anti_join(gene_exp_rate, gene_mw, by = c("systematic_name" = "ORF"))
#> # A tibble: 887 × 3
#>    systematic_name  rate expression
#>    <chr>           <dbl>      <dbl>
#>  1 YBR075W          0.05      -1.23
#>  2 YPR090W          0.05      -0.59
#>  3 YIR043C          0.05      -0.53
#>  4 YER109C          0.05      -0.24
#>  5 YGR272C          0.05      -0.61
#>  6 YDL038C          0.05      -0.91
#>  7 YJL012C-A        0.05       0.28
#>  8 YJL018W          0.05       0.03
#>  9 YFL057C          0.05       0.23
#> 10 YFL056C          0.05       0.32
#> # … with 877 more rows
…
