Class 12: Working with gene lists • pbda
…
res_tibble <- res %>%
  as.data.frame() %>% 
  tibble::rownames_to_column(var = "gene") %>%
  as.tibble()

res_tibble
#> # A tibble: 21,178 x 7
#>    gene          baseMean log2FoldChange lfcSE   stat        pvalue         padj
#>    <chr>            <dbl>          <dbl> <dbl>  <dbl>         <dbl>        <dbl>
#>  1 WASH7P          10.0           -0.121 0.697 -0.174 0.862              9.23e-1
#>  2 MIR6859-1        1.71          -0.497 1.51  -0.329 0.742              8.44e-1
#>  3 LOC101927589     0.238         -1.61  4.37  -0.369 0.712             NA      
#>  4 LOC729737      165.            -1.57  0.264 -5.93  0.00000000300      5.67e-8
#>  5 LOC100996442     0.456         -1.58  2.98  -0.529 0.597             NA      
#>  6 LOC102723897   140.            -0.374 0.214 -1.75  0.0807             1.81e-1
#>  7 LOC101929192     0.451         -1.58  3.00  -0.525 0.599             NA      
#>  8 RP4-669L17.10    1.62          -1.13  1.41  -0.801 0.423              5.94e-1
#>  9 LOC100134822     8.57           0.328 0.723  0.454 0.650              7.80e-1
#> 10 MIR6723          0.616         -0.736 3.22  -0.229 0.819             NA      
#> # … with 21,168 more rows

# res_tibble contains calculations for all genes, pick out "interesting" genes
gene_tibble <- res_tibble %>% 
  filter(!is.na(padj)) %>% # NA values from padj are from tossing low expressing genes
  filter(padj <= 0.01) %>% # padj <= 0.05 is common, or 0.01, sometimes even 0.1 is acceptable
  filter(log2FoldChange >= 1 | log2FoldChange <= -1) %>%
  arrange(desc(log2FoldChange))

gene_tibble
#> # A tibble: 1,908 x 7
#>    gene         baseMean log2FoldChange lfcSE  stat    pvalue      padj
#>    <chr>           <dbl>          <dbl> <dbl> <dbl>     <dbl>     <dbl>
#>  1 MAGEC2          133.           11.2  1.20   9.33 1.06e- 20 9.57e- 19
#>  2 PAGE5            76.5          10.7  1.20   8.90 5.57e- 19 4.23e- 17
#>  3 PGR            1732.            9.44 0.316 29.9  9.03e-197 7.88e-193
#>  4 FAM133A          27.2           9.24 1.24   7.44 1.01e- 13 4.05e- 12
#>  5 ZFP3             61.4           9.15 1.21   7.54 4.64e- 14 1.96e- 12
#>  6 GREB1          2343.            9.08 0.303 29.9  8.27e-197 7.88e-193
#>  7 LOC102724756     18.0           8.66 1.29   6.69 2.25e- 11 5.99e- 10
#>  8 CYP2B7P        1839.            8.58 0.336 25.5  1.94e-143 8.47e-140
#>  9 CTAG2           153.            8.31 0.675 12.3  7.76e- 35 2.46e- 32
#> 10 TMLHE           188.            8.25 1.05   7.88 3.34e- 15 1.62e- 13
#> # … with 1,898 more rows
…
submit

choose the appropriate organism

click “chart” on the desired annotation

download as file

# save output and load in R
loc <- system.file("extdata", "david.txt", package = 'pbda')
david <- read_tsv(loc) # output was tab-delimited instead of comma

david
#> # A tibble: 70 x 13
#>    Category Term  Count     `%`  PValue Genes `List Total` `Pop Hits`
#>    <chr>    <chr> <dbl>   <dbl>   <dbl> <chr>        <dbl>      <dbl>
#>  1 KEGG_PA… hsa0…    21 0.00744 4.37e-5 GSTA…          717         74
#>  2 KEGG_PA… hsa0…    33 0.0117  5.29e-5 HLA-…          717        150
#>  3 KEGG_PA… hsa0…    18 0.00638 2.04e-4 CYP2…          717         64
#>  4 KEGG_PA… hsa0…    11 0.00390 2.27e-4 UGT1…          717         27
#>  5 KEGG_PA… hsa0…    38 0.0135  3.28e-4 TNF,…          717        200
#>  6 KEGG_PA… hsa0…    18 0.00638 4.45e-4 GSTA…          717         68
#>  7 KEGG_PA… hsa0…    63 0.0223  4.50e-4 ADCY…          717        393
#>  8 KEGG_PA… hsa0…    14 0.00496 5.90e-4 UGT1…          717         46
#>  9 KEGG_PA… hsa0…    22 0.00779 6.09e-4 PRKC…          717         95
#> 10 KEGG_PA… hsa0…    11 0.00390 1.40e-3 UGT1…          717         33
#> # … with 60 more rows, and 5 more variables: `Pop Total` <dbl>, `Fold
#> #   Enrichment` <dbl>, Bonferroni <dbl>, Benjamini <dbl>, FDR <dbl>
…
str_detect: spits out TRUE or FALSE

# "-AS" denotes antisense genes, we can find all those
str_detect(gene_tibble$gene, "-AS")[1:50]
#>  [1] FALSE FALSE FALSE FALSE FALSE FALSE FALSE FALSE FALSE FALSE FALSE FALSE
#> [13] FALSE FALSE FALSE FALSE FALSE FALSE FALSE FALSE FALSE FALSE FALSE FALSE
#> [25] FALSE FALSE  TRUE FALSE FALSE FALSE FALSE FALSE FALSE FALSE FALSE FALSE
#> [37] FALSE FALSE FALSE FALSE FALSE FALSE FALSE FALSE FALSE FALSE FALSE FALSE
#> [49] FALSE FALSE

# use in `filter`
gene_tibble_as <- gene_tibble %>% filter(str_detect(gene, "-AS"))

gene_tibble_as
#> # A tibble: 23 x 7
#>    gene       baseMean log2FoldChange lfcSE  stat   pvalue     padj
#>    <chr>         <dbl>          <dbl> <dbl> <dbl>    <dbl>    <dbl>
#>  1 ELOVL2-AS1     5.47           6.71 1.41   4.75 2.05e- 6 2.20e- 5
#>  2 GAS6-AS2      19.5            2.48 0.478  5.18 2.19e- 7 2.85e- 6
#>  3 ZEB1-AS1      26.3            2.22 0.423  5.26 1.45e- 7 1.96e- 6
#>  4 FGF13-AS1     12.1            1.99 0.576  3.46 5.44e- 4 3.06e- 3
#>  5 C1RL-AS1      30.9            1.49 0.416  3.58 3.46e- 4 2.07e- 3
#>  6 RAP2C-AS1     38.5            1.48 0.382  3.87 1.07e- 4 7.50e- 4
#>  7 KANSL1-AS1    30.8            1.45 0.455  3.19 1.42e- 3 6.91e- 3
#>  8 DPP10-AS1    115.             1.20 0.254  4.71 2.42e- 6 2.58e- 5
#>  9 CCNT2-AS1     43.7            1.18 0.319  3.70 2.14e- 4 1.37e- 3
#> 10 DHRS4-AS1    694.             1.13 0.170  6.65 2.98e-11 7.79e-10
#> # … with 13 more rows

str_c: concatenate strings

# also add annotations of our own
gene_tibble_as2 <- gene_tibble_as %>% mutate(gene = str_c("HUMAN-", gene))

gene_tibble_as2
#> # A tibble: 23 x 7
#>    gene             baseMean log2FoldChange lfcSE  stat   pvalue     padj
#>    <chr>               <dbl>          <dbl> <dbl> <dbl>    <dbl>    <dbl>
#>  1 HUMAN-ELOVL2-AS1     5.47           6.71 1.41   4.75 2.05e- 6 2.20e- 5
#>  2 HUMAN-GAS6-AS2      19.5            2.48 0.478  5.18 2.19e- 7 2.85e- 6
#>  3 HUMAN-ZEB1-AS1      26.3            2.22 0.423  5.26 1.45e- 7 1.96e- 6
#>  4 HUMAN-FGF13-AS1     12.1            1.99 0.576  3.46 5.44e- 4 3.06e- 3
#>  5 HUMAN-C1RL-AS1      30.9            1.49 0.416  3.58 3.46e- 4 2.07e- 3
#>  6 HUMAN-RAP2C-AS1     38.5            1.48 0.382  3.87 1.07e- 4 7.50e- 4
#>  7 HUMAN-KANSL1-AS1    30.8            1.45 0.455  3.19 1.42e- 3 6.91e- 3
#>  8 HUMAN-DPP10-AS1    115.             1.20 0.254  4.71 2.42e- 6 2.58e- 5
#>  9 HUMAN-CCNT2-AS1     43.7            1.18 0.319  3.70 2.14e- 4 1.37e- 3
#> 10 HUMAN-DHRS4-AS1    694.             1.13 0.170  6.65 2.98e-11 7.79e-10
#> # … with 13 more rows

str_sub: extract substrings

str_sub("HUMAN-ELOVL2-AS1", 2, 4)
#> [1] "UMA"

gene_tibble_as3 <- gene_tibble_as2 %>% mutate(gene = str_sub(gene, 2, 4))

gene_tibble_as3
#> # A tibble: 23 x 7
#>    gene  baseMean log2FoldChange lfcSE  stat   pvalue     padj
#>    <chr>    <dbl>          <dbl> <dbl> <dbl>    <dbl>    <dbl>
#>  1 UMA       5.47           6.71 1.41   4.75 2.05e- 6 2.20e- 5
#>  2 UMA      19.5            2.48 0.478  5.18 2.19e- 7 2.85e- 6
#>  3 UMA      26.3            2.22 0.423  5.26 1.45e- 7 1.96e- 6
#>  4 UMA      12.1            1.99 0.576  3.46 5.44e- 4 3.06e- 3
#>  5 UMA      30.9            1.49 0.416  3.58 3.46e- 4 2.07e- 3
#>  6 UMA      38.5            1.48 0.382  3.87 1.07e- 4 7.50e- 4
#>  7 UMA      30.8            1.45 0.455  3.19 1.42e- 3 6.91e- 3
#>  8 UMA     115.             1.20 0.254  4.71 2.42e- 6 2.58e- 5
#>  9 UMA      43.7            1.18 0.319  3.70 2.14e- 4 1.37e- 3
#> 10 UMA     694.             1.13 0.170  6.65 2.98e-11 7.79e-10
#> # … with 13 more rows

# to remove annotations of fixed length
gene_tibble_as4 <- gene_tibble_as2 %>% mutate(gene = str_sub(gene, 7, -5)) # extract just the gene name from "HUMAN-ELOVL2-AS1"

gene_tibble_as4
#> # A tibble: 23 x 7
#>    gene   baseMean log2FoldChange lfcSE  stat   pvalue     padj
#>    <chr>     <dbl>          <dbl> <dbl> <dbl>    <dbl>    <dbl>
#>  1 ELOVL2     5.47           6.71 1.41   4.75 2.05e- 6 2.20e- 5
#>  2 GAS6      19.5            2.48 0.478  5.18 2.19e- 7 2.85e- 6
#>  3 ZEB1      26.3            2.22 0.423  5.26 1.45e- 7 1.96e- 6
#>  4 FGF13     12.1            1.99 0.576  3.46 5.44e- 4 3.06e- 3
#>  5 C1RL      30.9            1.49 0.416  3.58 3.46e- 4 2.07e- 3
#>  6 RAP2C     38.5            1.48 0.382  3.87 1.07e- 4 7.50e- 4
#>  7 KANSL1    30.8            1.45 0.455  3.19 1.42e- 3 6.91e- 3
#>  8 DPP10    115.             1.20 0.254  4.71 2.42e- 6 2.58e- 5
#>  9 CCNT2     43.7            1.18 0.319  3.70 2.14e- 4 1.37e- 3
#> 10 DHRS4    694.             1.13 0.170  6.65 2.98e-11 7.79e-10
#> # … with 13 more rows

Various conversions in R - BioMart

BioMart can be used outside of R too: http://www.ensembl.org/biomart/martview

We will be using biomaRt

library(biomaRt)
# biomaRt contains many useful datasets
listDatasets(useMart("ENSEMBL_MART_ENSEMBL", host = "www.ensembl.org")) %>% as_tibble() # hundreds of organisms
#> # A tibble: 212 x 3
#>    dataset                description                         version           
#>    <I<chr>>               <I<chr>>                            <I<chr>>          
#>  1 abrachyrhynchus_gene_… Pink-footed goose genes (ASM259213… ASM259213v1       
#>  2 acalliptera_gene_ense… Eastern happy genes (fAstCal1.2)    fAstCal1.2        
#>  3 acarolinensis_gene_en… Anole lizard genes (AnoCar2.0)      AnoCar2.0         
#>  4 acitrinellus_gene_ens… Midas cichlid genes (Midas_v5)      Midas_v5          
#>  5 ahaastii_gene_ensembl  Great spotted kiwi genes (aptHaa1)  aptHaa1           
#>  6 amelanoleuca_gene_ens… Panda genes (ailMel1)               ailMel1           
#>  7 amexicanus_gene_ensem… Mexican tetra genes (Astyanax_mexi… Astyanax_mexicanu…
#>  8 ampachon_gene_ensembl  Pachon cavefish genes (Astyanax_me… Astyanax_mexicanu…
#>  9 anancymaae_gene_ensem… Ma's night monkey genes (Anan_2.0)  Anan_2.0          
#> 10 aocellaris_gene_ensem… Clown anemonefish genes (AmpOce1.0) AmpOce1.0         
#> # … with 202 more rows

listAttributes(useMart("ensembl", dataset = "hsapiens_gene_ensembl")) %>% as_tibble() # thousands of rows/attributes
#> # A tibble: 3,607 x 3
#>    name                          description                  page        
#>    <chr>                         <chr>                        <chr>       
#>  1 ensembl_gene_id               Gene stable ID               feature_page
#>  2 ensembl_gene_id_version       Gene stable ID version       feature_page
#>  3 ensembl_transcript_id         Transcript stable ID         feature_page
#>  4 ensembl_transcript_id_version Transcript stable ID version feature_page
#>  5 ensembl_peptide_id            Protein stable ID            feature_page
#>  6 ensembl_peptide_id_version    Protein stable ID version    feature_page
#>  7 ensembl_exon_id               Exon stable ID               feature_page
#>  8 description                   Gene description             feature_page
#>  9 chromosome_name               Chromosome/scaffold name     feature_page
#> 10 start_position                Gene start (bp)              feature_page
#> # … with 3,597 more rows

listFilters(useMart("ensembl", dataset = "hsapiens_gene_ensembl")) %>% as_tibble() # ways to filter the data
#> # A tibble: 446 x 2
#>    name               description                           
#>    <chr>              <chr>                                 
#>  1 chromosome_name    Chromosome/scaffold name              
#>  2 start              Start                                 
#>  3 end                End                                   
#>  4 band_start         Band Start                            
#>  5 band_end           Band End                              
#>  6 marker_start       Marker Start                          
#>  7 marker_end         Marker End                            
#>  8 encode_region      Encode region                         
#>  9 strand             Strand                                
#> 10 chromosomal_region e.g. 1:100:10000:-1, 1:100000:200000:1
#> # … with 436 more rows
…
genesGO <- getBM(attributes = c("zfin_id_symbol", "go_id", "name_1006", "namespace_1003"), 
                 filters = "zfin_id_symbol", 
                 mart = drerio_mart, 
                 values = genes_drerio$gene, TRUE) %>% as_tibble()

genesGO
#> # A tibble: 157 x 4
#>    zfin_id_symbol go_id    name_1006                             namespace_1003 
#>    <chr>          <chr>    <chr>                                 <chr>          
#>  1 tbx18          GO:0006… regulation of transcription, DNA-tem… biological_pro…
#>  2 tbx18          GO:0005… nucleus                               cellular_compo…
#>  3 tbx18          GO:0003… DNA-binding transcription factor act… molecular_func…
#>  4 tbx18          GO:0003… DNA binding                           molecular_func…
#>  5 tbx18          GO:0000… RNA polymerase II regulatory region … molecular_func…
#>  6 tbx18          GO:0001… DNA-binding transcription activator … molecular_func…
#>  7 tbx18          GO:0000… negative regulation of transcription… biological_pro…
#>  8 tbx18          GO:0045… positive regulation of transcription… biological_pro…
#>  9 tbx18          GO:0001… RNA polymerase II activating transcr… molecular_func…
#> 10 tbx18          GO:0001… somitogenesis                         biological_pro…
#> # … with 147 more rows

genesGO <- genesGO %>% filter(go_id != "") # note that there are lines with empty go terms, remember to remove those

# join GO dataframe with original RNA-seq/scRNA-seq data if needed
genes_drerio_joinedGO <- left_join(genes_drerio, genesGO, 
                                   by = c("gene" = "zfin_id_symbol"))

genes_drerio_joinedGO
#> # A tibble: 153 x 5
#>    gene  p_val_adj go_id    name_1006                            namespace_1003 
#>    <chr>     <dbl> <chr>    <chr>                                <chr>          
#>  1 tbx18 1.36e-275 GO:0006… regulation of transcription, DNA-te… biological_pro…
#>  2 tbx18 1.36e-275 GO:0005… nucleus                              cellular_compo…
#>  3 tbx18 1.36e-275 GO:0003… DNA-binding transcription factor ac… molecular_func…
#>  4 tbx18 1.36e-275 GO:0003… DNA binding                          molecular_func…
#>  5 tbx18 1.36e-275 GO:0000… RNA polymerase II regulatory region… molecular_func…
#>  6 tbx18 1.36e-275 GO:0001… DNA-binding transcription activator… molecular_func…
#>  7 tbx18 1.36e-275 GO:0000… negative regulation of transcriptio… biological_pro…
#>  8 tbx18 1.36e-275 GO:0045… positive regulation of transcriptio… biological_pro…
#>  9 tbx18 1.36e-275 GO:0001… RNA polymerase II activating transc… molecular_func…
#> 10 tbx18 1.36e-275 GO:0001… somitogenesis                        biological_pro…
#> # … with 143 more rows
…
