Class 8: Heatmaps and Clustering • pbda
…
# in one step
tbl_mat <- tbl_data %>% 
  as.data.frame() %>% 
  column_to_rownames("gene") %>% 
  as.matrix()

Converting vectors to tibbles is also very useful.

# make a vector from colnames
col_ids <- colnames(tbl_mat)

#build tibble directly
tibble(sample_names = col_ids)
#> # A tibble: 72 × 1
#>    sample_names
#>    <chr>       
#>  1 zy_1        
#>  2 zy_2        
#>  3 zy_3        
#>  4 zy_4        
#>  5 early2cell_1
#>  6 early2cell_2
#>  7 early2cell_3
#>  8 early2cell_4
#>  9 early2cell_5
#> 10 early2cell_6
#> # … with 62 more rows

#additional columns can be added as long as all of the vectors are the same length
tibble(sample_names = col_ids,
       id = 1:72)
#> # A tibble: 72 × 2
#>    sample_names    id
#>    <chr>        <int>
#>  1 zy_1             1
#>  2 zy_2             2
#>  3 zy_3             3
#>  4 zy_4             4
#>  5 early2cell_1     5
#>  6 early2cell_2     6
#>  7 early2cell_3     7
#>  8 early2cell_4     8
#>  9 early2cell_5     9
#> 10 early2cell_6    10
#> # … with 62 more rows
…
