Class 5: Working with gene lists • pbda
…
res_tibble <- as.data.frame(res) %>%
  tibble::rownames_to_column(var = "gene") %>%
  as.tibble()
res_tibble
#> # A tibble: 21,178 x 7
#>    gene        baseMean log2FoldChange lfcSE   stat     pvalue        padj
#>    <chr>          <dbl>          <dbl> <dbl>  <dbl>      <dbl>       <dbl>
#>  1 WASH7P        10.0           -0.121 0.697 -0.174    8.62e-1     9.23e-1
#>  2 MIR6859-1      1.71          -0.497 1.51  -0.329    7.42e-1     8.44e-1
#>  3 LOC1019275…    0.238         -1.61  4.37  -0.369    7.12e-1    NA      
#>  4 LOC729737    165.            -1.57  0.264 -5.93     3.00e-9     5.67e-8
#>  5 LOC1009964…    0.456         -1.58  2.98  -0.529    5.97e-1    NA      
#>  6 LOC1027238…  140.            -0.374 0.214 -1.75     8.07e-2     1.81e-1
#>  7 LOC1019291…    0.451         -1.58  3.00  -0.525    5.99e-1    NA      
#>  8 RP4-669L17…    1.62          -1.13  1.41  -0.801    4.23e-1     5.94e-1
#>  9 LOC1001348…    8.57           0.328 0.723  0.454    6.50e-1     7.80e-1
#> 10 MIR6723        0.616         -0.736 3.22  -0.229    8.19e-1    NA      
#> # ... with 21,168 more rows

# res_tibble contains calculations for all genes, pick out "interesting" genes
gene_tibble <- res_tibble %>% 
  filter(!is.na(padj) & padj <= 0.01) %>% # p <= 0.05 is common, but can be lowered, sometimes even 0.1 is acceptable
  filter(log2FoldChange >= 1 | log2FoldChange <= -1) %>%
  arrange(desc(log2FoldChange))
gene_tibble
#> # A tibble: 1,908 x 7
#>    gene         baseMean log2FoldChange lfcSE  stat    pvalue      padj
#>    <chr>           <dbl>          <dbl> <dbl> <dbl>     <dbl>     <dbl>
#>  1 MAGEC2          133.           11.2  1.20   9.33 1.06e- 20 9.57e- 19
#>  2 PAGE5            76.5          10.7  1.20   8.90 5.57e- 19 4.23e- 17
#>  3 PGR            1732.            9.44 0.316 29.9  9.03e-197 7.88e-193
#>  4 FAM133A          27.2           9.24 1.24   7.44 1.01e- 13 4.05e- 12
#>  5 ZFP3             61.4           9.15 1.21   7.54 4.64e- 14 1.96e- 12
#>  6 GREB1          2343.            9.08 0.303 29.9  8.27e-197 7.88e-193
#>  7 LOC102724756     18.0           8.66 1.29   6.69 2.25e- 11 5.99e- 10
#>  8 CYP2B7P        1839.            8.58 0.336 25.5  1.94e-143 8.47e-140
#>  9 CTAG2           153.            8.31 0.675 12.3  7.76e- 35 2.46e- 32
#> 10 TMLHE           188.            8.25 1.05   7.88 3.34e- 15 1.62e- 13
#> # ... with 1,898 more rows
…
ensg_tibble2 <- ensg_tibble %>% mutate(gene = str_replace(gene, pattern = "\\..*", replacement = "")) # regular expressions are useful and worth the time to learn, see ?base::regex
ensg_tibble2
#> # A tibble: 5 x 2
#>   gene              padj
#>   <chr>            <dbl>
#> 1 ENSG00000238164 0.0001
#> 2 ENSG00000049249 0.0002
#> 3 ENSG00000226823 0.0001
#> 4 ENSG00000266470 0.0002
#> 5 ENSG00000229435 0.05

# some other simple and useful functions
gene_tibble_l <- gene_tibble %>% mutate(gene = str_to_lower(gene))
gene_tibble_l
#> # A tibble: 1,908 x 7
#>    gene         baseMean log2FoldChange lfcSE  stat    pvalue      padj
#>    <chr>           <dbl>          <dbl> <dbl> <dbl>     <dbl>     <dbl>
#>  1 magec2          133.           11.2  1.20   9.33 1.06e- 20 9.57e- 19
#>  2 page5            76.5          10.7  1.20   8.90 5.57e- 19 4.23e- 17
#>  3 pgr            1732.            9.44 0.316 29.9  9.03e-197 7.88e-193
#>  4 fam133a          27.2           9.24 1.24   7.44 1.01e- 13 4.05e- 12
#>  5 zfp3             61.4           9.15 1.21   7.54 4.64e- 14 1.96e- 12
#>  6 greb1          2343.            9.08 0.303 29.9  8.27e-197 7.88e-193
#>  7 loc102724756     18.0           8.66 1.29   6.69 2.25e- 11 5.99e- 10
#>  8 cyp2b7p        1839.            8.58 0.336 25.5  1.94e-143 8.47e-140
#>  9 ctag2           153.            8.31 0.675 12.3  7.76e- 35 2.46e- 32
#> 10 tmlhe           188.            8.25 1.05   7.88 3.34e- 15 1.62e- 13
#> # ... with 1,898 more rows

gene_tibble_u <- gene_tibble_l %>% mutate(gene = str_to_upper(gene))
gene_tibble_u # note that this is not ideal for most biology situations, see below for better way
#> # A tibble: 1,908 x 7
#>    gene         baseMean log2FoldChange lfcSE  stat    pvalue      padj
#>    <chr>           <dbl>          <dbl> <dbl> <dbl>     <dbl>     <dbl>
#>  1 MAGEC2          133.           11.2  1.20   9.33 1.06e- 20 9.57e- 19
#>  2 PAGE5            76.5          10.7  1.20   8.90 5.57e- 19 4.23e- 17
#>  3 PGR            1732.            9.44 0.316 29.9  9.03e-197 7.88e-193
#>  4 FAM133A          27.2           9.24 1.24   7.44 1.01e- 13 4.05e- 12
#>  5 ZFP3             61.4           9.15 1.21   7.54 4.64e- 14 1.96e- 12
#>  6 GREB1          2343.            9.08 0.303 29.9  8.27e-197 7.88e-193
#>  7 LOC102724756     18.0           8.66 1.29   6.69 2.25e- 11 5.99e- 10
#>  8 CYP2B7P        1839.            8.58 0.336 25.5  1.94e-143 8.47e-140
#>  9 CTAG2           153.            8.31 0.675 12.3  7.76e- 35 2.46e- 32
#> 10 TMLHE           188.            8.25 1.05   7.88 3.34e- 15 1.62e- 13
#> # ... with 1,898 more rows

gene_tibble3 <- gene_tibble %>% mutate(len = str_length(gene))
gene_tibble3
#> # A tibble: 1,908 x 8
#>    gene      baseMean log2FoldChange lfcSE  stat    pvalue      padj   len
#>    <chr>        <dbl>          <dbl> <dbl> <dbl>     <dbl>     <dbl> <int>
#>  1 MAGEC2       133.           11.2  1.20   9.33 1.06e- 20 9.57e- 19     6
#>  2 PAGE5         76.5          10.7  1.20   8.90 5.57e- 19 4.23e- 17     5
#>  3 PGR         1732.            9.44 0.316 29.9  9.03e-197 7.88e-193     3
#>  4 FAM133A       27.2           9.24 1.24   7.44 1.01e- 13 4.05e- 12     7
#>  5 ZFP3          61.4           9.15 1.21   7.54 4.64e- 14 1.96e- 12     4
#>  6 GREB1       2343.            9.08 0.303 29.9  8.27e-197 7.88e-193     5
#>  7 LOC10272…     18.0           8.66 1.29   6.69 2.25e- 11 5.99e- 10    12
#>  8 CYP2B7P     1839.            8.58 0.336 25.5  1.94e-143 8.47e-140     7
#>  9 CTAG2        153.            8.31 0.675 12.3  7.76e- 35 2.46e- 32     5
#> 10 TMLHE        188.            8.25 1.05   7.88 3.34e- 15 1.62e- 13     5
#> # ... with 1,898 more rows

# "-AS" denotes antisense genes, we can find all those
gene_tibble_as <- gene_tibble %>% filter(str_detect(gene, "-AS"))
gene_tibble_as
#> # A tibble: 23 x 7
#>    gene       baseMean log2FoldChange lfcSE  stat   pvalue     padj
#>    <chr>         <dbl>          <dbl> <dbl> <dbl>    <dbl>    <dbl>
#>  1 ELOVL2-AS1     5.47           6.71 1.41   4.75 2.05e- 6 2.20e- 5
#>  2 GAS6-AS2      19.5            2.48 0.478  5.18 2.19e- 7 2.85e- 6
#>  3 ZEB1-AS1      26.3            2.22 0.423  5.26 1.45e- 7 1.96e- 6
#>  4 FGF13-AS1     12.1            1.99 0.576  3.46 5.44e- 4 3.06e- 3
#>  5 C1RL-AS1      30.9            1.49 0.416  3.58 3.46e- 4 2.07e- 3
#>  6 RAP2C-AS1     38.5            1.48 0.382  3.87 1.07e- 4 7.50e- 4
#>  7 KANSL1-AS1    30.8            1.45 0.455  3.19 1.42e- 3 6.91e- 3
#>  8 DPP10-AS1    115.             1.20 0.254  4.71 2.42e- 6 2.58e- 5
#>  9 CCNT2-AS1     43.7            1.18 0.319  3.70 2.14e- 4 1.37e- 3
#> 10 DHRS4-AS1    694.             1.13 0.170  6.65 2.98e-11 7.79e-10
#> # ... with 13 more rows

# also add annotations of our own
gene_tibble_as2 <- gene_tibble_as %>% mutate(gene = str_c("HUMAN-", gene))
gene_tibble_as2
#> # A tibble: 23 x 7
#>    gene             baseMean log2FoldChange lfcSE  stat   pvalue     padj
#>    <chr>               <dbl>          <dbl> <dbl> <dbl>    <dbl>    <dbl>
#>  1 HUMAN-ELOVL2-AS1     5.47           6.71 1.41   4.75 2.05e- 6 2.20e- 5
#>  2 HUMAN-GAS6-AS2      19.5            2.48 0.478  5.18 2.19e- 7 2.85e- 6
#>  3 HUMAN-ZEB1-AS1      26.3            2.22 0.423  5.26 1.45e- 7 1.96e- 6
#>  4 HUMAN-FGF13-AS1     12.1            1.99 0.576  3.46 5.44e- 4 3.06e- 3
#>  5 HUMAN-C1RL-AS1      30.9            1.49 0.416  3.58 3.46e- 4 2.07e- 3
#>  6 HUMAN-RAP2C-AS1     38.5            1.48 0.382  3.87 1.07e- 4 7.50e- 4
#>  7 HUMAN-KANSL1-AS1    30.8            1.45 0.455  3.19 1.42e- 3 6.91e- 3
#>  8 HUMAN-DPP10-AS1    115.             1.20 0.254  4.71 2.42e- 6 2.58e- 5
#>  9 HUMAN-CCNT2-AS1     43.7            1.18 0.319  3.70 2.14e- 4 1.37e- 3
#> 10 HUMAN-DHRS4-AS1    694.             1.13 0.170  6.65 2.98e-11 7.79e-10
#> # ... with 13 more rows

various conversions in R - BioMart

BioMart can be used outside of R too: http://www.ensembl.org/biomart/martview

We will be using biomaRt

# BiocManager::install("biomaRt", version = "3.8")
library(biomaRt)

# biomaRt links to many useful datasets
listDatasets(useMart("ENSEMBL_MART_ENSEMBL", host = "www.ensembl.org")) %>% as_tibble() # hundreds of organisms
#> # A tibble: 138 x 3
#>    dataset               description                     version          
#>    <I(chr)>              <I(chr)>                        <I(chr)>         
#>  1 acalliptera_gene_ens… Eastern happy genes (fAstCal1.… fAstCal1.2       
#>  2 acarolinensis_gene_e… Anole lizard genes (AnoCar2.0)  AnoCar2.0        
#>  3 acitrinellus_gene_en… Midas cichlid genes (Midas_v5)  Midas_v5         
#>  4 amelanoleuca_gene_en… Panda genes (ailMel1)           ailMel1          
#>  5 amexicanus_gene_ense… Cave fish genes (Astyanax_mexi… Astyanax_mexican…
#>  6 anancymaae_gene_ense… Ma's night monkey genes (Anan_… Anan_2.0         
#>  7 aocellaris_gene_ense… Clown anemonefish genes (AmpOc… AmpOce1.0        
#>  8 apercula_gene_ensembl Orange clownfish genes (Nemo_v… Nemo_v1          
#>  9 aplatyrhynchos_gene_… Duck genes (BGI_duck_1.0)       BGI_duck_1.0     
#> 10 apolyacanthus_gene_e… Spiny chromis genes (ASM210954… ASM210954v1      
#> # ... with 128 more rows

listAttributes(useMart("ensembl", dataset = "hsapiens_gene_ensembl")) %>% as_tibble() # thousands of rows/attributes
#> # A tibble: 2,579 x 3
#>    name                          description                  page        
#>    <chr>                         <chr>                        <chr>       
#>  1 ensembl_gene_id               Gene stable ID               feature_page
#>  2 ensembl_gene_id_version       Gene stable ID version       feature_page
#>  3 ensembl_transcript_id         Transcript stable ID         feature_page
#>  4 ensembl_transcript_id_version Transcript stable ID version feature_page
#>  5 ensembl_peptide_id            Protein stable ID            feature_page
#>  6 ensembl_peptide_id_version    Protein stable ID version    feature_page
#>  7 ensembl_exon_id               Exon stable ID               feature_page
#>  8 description                   Gene description             feature_page
#>  9 chromosome_name               Chromosome/scaffold name     feature_page
#> 10 start_position                Gene start (bp)              feature_page
#> # ... with 2,569 more rows

listFilters(useMart("ensembl", dataset = "hsapiens_gene_ensembl")) %>% as_tibble() # ways to filter the data
#> # A tibble: 373 x 2
#>    name               description                           
#>    <chr>              <chr>                                 
#>  1 chromosome_name    Chromosome/scaffold name              
#>  2 start              Start                                 
#>  3 end                End                                   
#>  4 band_start         Band Start                            
#>  5 band_end           Band End                              
#>  6 marker_start       Marker Start                          
#>  7 marker_end         Marker End                            
#>  8 encode_region      Encode region                         
#>  9 strand             Strand                                
#> 10 chromosomal_region e.g. 1:100:10000:-1, 1:100000:200000:1
#> # ... with 363 more rows
…
genesGO <- getBM(attributes = c("zfin_id_symbol", "go_id", "name_1006", "namespace_1003"), 
                 filters = c("zfin_id_symbol", "with_go"), 
                 mart = drerio_mart, 
                 values = list(genes_drerio$gene, TRUE)) %>% as_tibble()
genesGO
#> # A tibble: 129 x 4
#>    zfin_id_symbol go_id     name_1006                     namespace_1003  
#>    <chr>          <chr>     <chr>                         <chr>           
#>  1 tbx18          GO:00036… DNA binding                   molecular_funct…
#>  2 tbx18          GO:00037… DNA-binding transcription fa… molecular_funct…
#>  3 tbx18          GO:00063… regulation of transcription,… biological_proc…
#>  4 tbx18          GO:00056… nucleus                       cellular_compon…
#>  5 tbx2a          GO:00036… DNA binding                   molecular_funct…
#>  6 tbx2a          GO:00037… DNA-binding transcription fa… molecular_funct…
#>  7 tbx2a          GO:00063… regulation of transcription,… biological_proc…
#>  8 tbx2a          GO:00056… nucleus                       cellular_compon…
#>  9 tbx2a          GO:00055… protein binding               molecular_funct…
#> 10 tbx2a          GO:00487… pronephros development        biological_proc…
#> # ... with 119 more rows

# join GO dataframe with original RNA-seq/scRNA-seq data if needed
genes_drerio_joinedGO <- left_join(genes_drerio, genesGO, 
                                   by = c("gene" = "zfin_id_symbol"))
genes_drerio_joinedGO
#> # A tibble: 130 x 5
#>    gene   p_val_adj go_id    name_1006                    namespace_1003  
#>    <chr>      <dbl> <chr>    <chr>                        <chr>           
#>  1 tbx18  1.36e-275 GO:0003… DNA binding                  molecular_funct…
#>  2 tbx18  1.36e-275 GO:0003… DNA-binding transcription f… molecular_funct…
#>  3 tbx18  1.36e-275 GO:0006… regulation of transcription… biological_proc…
#>  4 tbx18  1.36e-275 GO:0005… nucleus                      cellular_compon…
#>  5 tmsb4x 5.40e-222 GO:0003… actin monomer binding        molecular_funct…
#>  6 tmsb4x 5.40e-222 GO:0007… actin filament organization  biological_proc…
#>  7 tmsb4x 5.40e-222 GO:0030… regulation of cell migration biological_proc…
#>  8 tmsb4x 5.40e-222 GO:0042… sequestering of actin monom… biological_proc…
#>  9 tmsb4x 5.40e-222 GO:0005… cytoplasm                    cellular_compon…
#> 10 tmsb4x 5.40e-222 GO:0001… heart looping                biological_proc…
#> # ... with 120 more rows
…
