Class 4: Genomic Interval Analysis part 1 • eda
…
tf_bed <- read_tsv(url, col_names = F)

Load data from file that is included in eda package

library(tidyverse)
library(eda)

file_name <- system.file("extdata", 
                         "wgEncodeRegTfbsClusteredV3.bed.gz", 
                         package = "eda")

tf_bed <- read_tsv(file_name, col_names = F)

tf_bed
#> # A tibble: 4,380,444 x 4
#>    X1        X2     X3 X4    
#>    <chr>  <int>  <int> <chr> 
#>  1 chr1   10073  10329 ZBTB33
#>  2 chr1   10149  10413 CEBPB 
#>  3 chr1   16110  16390 CTCF  
#>  4 chr1   29198  29688 TAF1  
#>  5 chr1   29275  29591 GABPA 
#>  6 chr1   89795  90051 USF1  
#>  7 chr1   91156  91580 CTCF  
#>  8 chr1  104859 105089 CTCF  
#>  9 chr1  138850 139274 CTCF  
#> 10 chr1  235541 235877 SP1   
#> # ... with 4,380,434 more rows

Fixing column names

new_names <- c(
  "chrom",
  "start",
  "end",
  "TF"
)

colnames(tf_bed) <- new_names
tf_bed
#> # A tibble: 4,380,444 x 4
#>    chrom  start    end TF    
#>    <chr>  <int>  <int> <chr> 
#>  1 chr1   10073  10329 ZBTB33
#>  2 chr1   10149  10413 CEBPB 
#>  3 chr1   16110  16390 CTCF  
#>  4 chr1   29198  29688 TAF1  
#>  5 chr1   29275  29591 GABPA 
#>  6 chr1   89795  90051 USF1  
#>  7 chr1   91156  91580 CTCF  
#>  8 chr1  104859 105089 CTCF  
#>  9 chr1  138850 139274 CTCF  
#> 10 chr1  235541 235877 SP1   
#> # ... with 4,380,434 more rows

In class exercises

Which TF has the most binding-sites (AKA peaks)?

group_by(tf_bed, TF) %>%  
  summarize(total = n()) %>%  
  arrange(desc(total)) 
#> # A tibble: 161 x 2
#>    TF      total
#>    <chr>   <int>
#>  1 CTCF   162209
#>  2 CEBPB  146873
#>  3 EP300  138836
#>  4 POLR2A 134990
#>  5 FOS    131528
#>  6 RAD21  119039
#>  7 JUND    97411
#>  8 MYC     96959
#>  9 FOXA1   89906
#> 10 MAX     85949
#> # ... with 151 more rows

Which TF covers the most basepairs in the genome?

mutate(tf_bed, 
       peak_length = end - start) %>% 
  group_by(TF) %>% 
  summarize(total_bps = sum(peak_length)) %>% 
  arrange(desc(total_bps)) 
#> # A tibble: 161 x 2
#>    TF     total_bps
#>    <chr>      <int>
#>  1 POLR2A  89294720
#>  2 CTCF    58703098
#>  3 EP300   48927186
#>  4 CEBPB   40528940
#>  5 FOS     40220836
#>  6 MYC     37956453
#>  7 MAX     33399586
#>  8 JUND    32234838
#>  9 GATA2   30382649
#> 10 RAD21   29887860
#> # ... with 151 more rows

Which TF has the broadest or the narrowest binding-sites on average?

mutate(tf_bed, 
       peak_length = end - start) %>% 
  group_by(TF) %>% 
  summarize(mean_bps = mean(peak_length)) %>% 
  arrange(desc(mean_bps))
#> # A tibble: 161 x 2
#>    TF      mean_bps
#>    <chr>      <dbl>
#>  1 EZH2        983.
#>  2 ZNF274      894.
#>  3 RBBP5       763.
#>  4 KAP1        755.
#>  5 POLR3G      709.
#>  6 SETDB1      684.
#>  7 SMARCA4     683.
#>  8 SMARCC1     681.
#>  9 SMARCB1     668.
#> 10 POLR2A      661.
#> # ... with 151 more rows

mutate(tf_bed, 
       peak_length = end - start) %>% 
  group_by(TF) %>% 
  summarize(mean_bps = mean(peak_length)) %>% 
  arrange(mean_bps)
#> # A tibble: 161 x 2
#>    TF     mean_bps
#>    <chr>     <dbl>
#>  1 CTCFL      164.
#>  2 BATF       210.
#>  3 PBX3       210.
#>  4 FOSL1      214.
#>  5 POU5F1     214.
#>  6 SRF        214.
#>  7 NFE2       225.
#>  8 EGR1       238.
#>  9 NANOG      239.
#> 10 FAM48A     240.
#> # ... with 151 more rows
…
valr includes many functions for manipulating, comparing, and randomizing interval data. The documentation contains a list of all of the available functions.

How many SNPs in TF binding sites?

First obtain a bed file of SNPs:

library(valr)
snp_file <- system.file("extdata", 
                        "hg19.snps147.chr22.bed.gz", 
                        package = "valr")

snps <- read_bed(snp_file, 
                 n_fields = 6)
snps
#> # A tibble: 10,000 x 6
#>    chrom    start      end name        score strand
#>    <chr>    <int>    <int> <chr>       <chr> <chr> 
#>  1 chr22 16053247 16053248 rs587721086 0     +     
#>  2 chr22 16053443 16053444 rs80167676  0     +     
#>  3 chr22 16055964 16055965 rs587706951 0     +     
#>  4 chr22 16069373 16069374 rs2154787   0     +     
#>  5 chr22 16069782 16069783 rs1963212   0     +     
#>  6 chr22 16100513 16100514 rs8140563   0     +     
#>  7 chr22 16114622 16114623 rs558374111 0     +     
#>  8 chr22 16115181 16115182 rs567521927 0     +     
#>  9 chr22 16115377 16115378 rs538733846 0     +     
#> 10 chr22 16121639 16121640 rs544560983 0     +     
#> # ... with 9,990 more rows

snps_in_tfs <- bed_intersect(tf_bed, snps) 

snps_in_tfs
#> # A tibble: 8,851 x 10
#>    chrom start.x  end.x TF.x  start.y  end.y name.y score.y strand.y
#>    <chr>   <int>  <int> <chr>   <int>  <int> <chr>  <chr>   <chr>   
#>  1 chr22  1.69e7 1.69e7 CTCF   1.69e7 1.69e7 rs131… 0       +       
#>  2 chr22  1.69e7 1.69e7 CTCF   1.69e7 1.69e7 rs575… 0       +       
#>  3 chr22  1.69e7 1.69e7 CEBPB  1.69e7 1.69e7 rs575… 0       +       
#>  4 chr22  1.69e7 1.69e7 SMC3   1.69e7 1.69e7 rs575… 0       +       
#>  5 chr22  1.70e7 1.70e7 NR3C1  1.70e7 1.70e7 rs237… 0       +       
#>  6 chr22  1.70e7 1.70e7 TAF1   1.70e7 1.70e7 rs536… 0       +       
#>  7 chr22  1.71e7 1.71e7 RBBP5  1.71e7 1.71e7 rs223… 0       +       
#>  8 chr22  1.71e7 1.71e7 MAX    1.71e7 1.71e7 rs223… 0       +       
#>  9 chr22  1.71e7 1.71e7 UBTF   1.71e7 1.71e7 rs223… 0       +       
#> 10 chr22  1.71e7 1.71e7 SAP30  1.71e7 1.71e7 rs223… 0       +       
#> # ... with 8,841 more rows, and 1 more variable: .overlap <int>

How close are SNPs to transcription start sites?

The bed_closest() function finds the closest intervals between two sets of intervals.

First read in a BED file that contains genes in the human genome (hg19 build).

gene_file <- system.file("extdata", 
                        "hg19_genes.bed.gz", 
                        package = "eda")

genes <- read_bed(gene_file, 
                 n_fields = 6)
genes
#> # A tibble: 55,006 x 6
#>    chrom start   end name         score strand
#>    <chr> <int> <int> <chr>        <chr> <chr> 
#>  1 chr1  11868 14362 LOC102725121 3     +     
#>  2 chr1  11873 14409 DDX11L1      3     +     
#>  3 chr1  14361 29370 WASH7P       11    -     
#>  4 chr1  17368 17436 MIR6859-1    1     -     
#>  5 chr1  17368 17436 MIR6859-2    1     -     
#>  6 chr1  17368 17436 MIR6859-3    1     -     
#>  7 chr1  17368 17436 MIR6859-4    1     -     
#>  8 chr1  30365 30503 MIR1302-2    1     +     
#>  9 chr1  30365 30503 MIR1302-9    1     +     
#> 10 chr1  30365 30503 MIR1302-10   1     +     
#> # ... with 54,996 more rows

Next we’ll generate a set of transcription start sites for each gene. The start site depends on the strand of the interval. Here for simplicity we will only look at intervals from the plus strand. If you want to keep the minus strand you need to use ifelse() in the mutate() call to conditionally define the start and end based on strand.

tss <- filter(genes, strand == "+") %>% 
  mutate(end = start + 1)
              
tss
#> # A tibble: 28,035 x 6
#>    chrom  start    end name         score strand
#>    <chr>  <int>  <dbl> <chr>        <chr> <chr> 
#>  1 chr1   11868  11869 LOC102725121 3     +     
#>  2 chr1   11873  11874 DDX11L1      3     +     
#>  3 chr1   30365  30366 MIR1302-2    1     +     
#>  4 chr1   30365  30366 MIR1302-9    1     +     
#>  5 chr1   30365  30366 MIR1302-10   1     +     
#>  6 chr1   30365  30366 MIR1302-11   1     +     
#>  7 chr1   69090  69091 OR4F5        1     +     
#>  8 chr1  323891 323892 LOC100132287 3     +     
#>  9 chr1  323891 323892 LOC100132062 3     +     
#> 10 chr1  323891 323892 LOC100133331 4     +     
#> # ... with 28,025 more rows

Lastly, we will use the bed_closest() tool to find the closest TSS to each SNP.

bed_closest(snps, tss) %>% 
  select(chrom:strand.x, name.y, .overlap, .dist)
#> # A tibble: 14,019 x 9
#>    chrom  start.x   end.x name.x   score.x strand.x name.y .overlap  .dist
#>    <chr>    <int>   <int> <chr>    <chr>   <chr>    <chr>     <int>  <int>
#>  1 chr22 16053247  1.61e7 rs58772… 0       +        BMS1P…        0 103831
#>  2 chr22 16053443  1.61e7 rs80167… 0       +        BMS1P…        0 103635
#>  3 chr22 16055964  1.61e7 rs58770… 0       +        BMS1P…        0 101114
#>  4 chr22 16069373  1.61e7 rs21547… 0       +        BMS1P…        0  87705
#>  5 chr22 16069782  1.61e7 rs19632… 0       +        BMS1P…        0  87296
#>  6 chr22 16100513  1.61e7 rs81405… 0       +        BMS1P…        0  56565
#>  7 chr22 16114622  1.61e7 rs55837… 0       +        BMS1P…        0  42456
#>  8 chr22 16115181  1.61e7 rs56752… 0       +        BMS1P…        0  41897
#>  9 chr22 16115377  1.61e7 rs53873… 0       +        BMS1P…        0  41701
#> 10 chr22 16121639  1.61e7 rs54456… 0       +        BMS1P…        0  35439
#> # ... with 14,009 more rows
…
