Class 9: Exploring data with PCA • pbda
…
sim
#> # A tibble: 100 x 3
#>       id gene_1 gene_2
#>    <int>  <dbl>  <dbl>
#>  1     1  -3.00  -2.12
#>  2     2  -2.82  -2.93
#>  3     3  -2.28  -2.38
#>  4     4  -2.17  -2.54
#>  5     5  -1.53  -1.31
#>  6     6  -1.52  -1.93
#>  7     7  -1.52  -1.81
#>  8     8  -1.42  -1.99
#>  9     9  -1.30  -1.41
#> 10    10  -1.29  -1.38
#> # … with 90 more rows
…
kmeans cluster the data

set.seed(42)
km <- kmeans(pc_mat, centers = 7)
km_clusters <- km$cluster

tidy_clusters <- tibble(
  sample = names(km_clusters),
  cluster = km_clusters
)
tidy_clusters
#> # A tibble: 72 x 2
#>    sample       cluster
#>    <chr>          <int>
#>  1 zy_1               4
#>  2 zy_2               4
#>  3 zy_3               4
#>  4 zy_4               4
#>  5 early2cell_1       4
#>  6 early2cell_2       4
#>  7 early2cell_3       4
#>  8 early2cell_4       4
#>  9 early2cell_5       4
#> 10 early2cell_6       4
#> # … with 62 more rows
…
