Class 2: Analyzing qPCR data • pbda
…
Dealing with sample names

separate takes a column containing multiple variables on input and returns multiple columns, each with a new variable. For example, a column with year/month/day information can be separated into invidual columns.

ys <- 1999:2002
ms <- c('Jan', 'Feb', 'Mar')
ds <- 1:10

dates <- tidyr::crossing(ys, ms, ds) %>% unite(date, ys:ds, sep = '-')

separate

dates
#> # A tibble: 120 × 1
#>    date       
#>    <chr>      
#>  1 1999-Feb-1 
#>  2 1999-Feb-2 
#>  3 1999-Feb-3 
#>  4 1999-Feb-4 
#>  5 1999-Feb-5 
#>  6 1999-Feb-6 
#>  7 1999-Feb-7 
#>  8 1999-Feb-8 
#>  9 1999-Feb-9 
#> 10 1999-Feb-10
#> # … with 110 more rows

# separate is the inverse of unite
dates %>% separate(date, into = c('year', 'month', 'day'), sep = '-')
#> # A tibble: 120 × 3
#>    year  month day  
#>    <chr> <chr> <chr>
#>  1 1999  Feb   1    
#>  2 1999  Feb   2    
#>  3 1999  Feb   3    
#>  4 1999  Feb   4    
#>  5 1999  Feb   5    
#>  6 1999  Feb   6    
#>  7 1999  Feb   7    
#>  8 1999  Feb   8    
#>  9 1999  Feb   9    
#> 10 1999  Feb   10   
#> # … with 110 more rows
…
crossing

crossing is useful for generating combinations of variables in tibble format. For example, use crossing to generate combinations of experimental varaibles including sample names, gene names, reaction conditions, and replicates.

genotype <- c('wt', 'mut')
gene <- c('IFN', 'ACTIN')
time <- c(0, 12, 24, 48)
rt <- c('+', '-') # reverse transcriptase added?
rep <- 1:3

samples <- tidyr::crossing(genotype, gene, time, rep, rt)

samples
#> # A tibble: 96 × 5
#>    genotype gene   time   rep rt   
#>    <chr>    <chr> <dbl> <int> <chr>
#>  1 mut      ACTIN     0     1 -    
#>  2 mut      ACTIN     0     1 +    
#>  3 mut      ACTIN     0     2 -    
#>  4 mut      ACTIN     0     2 +    
#>  5 mut      ACTIN     0     3 -    
#>  6 mut      ACTIN     0     3 +    
#>  7 mut      ACTIN    12     1 -    
#>  8 mut      ACTIN    12     1 +    
#>  9 mut      ACTIN    12     2 -    
#> 10 mut      ACTIN    12     2 +    
#> # … with 86 more rows
…
samples <-
  tidyr::crossing(
    name = c('WT', 'MT'),
    hours = c('t0', 't4', 't8', 't24'),
    reps = 1:3
    ) %>%
  mutate(
    value = sample(1:100, n(), replace = TRUE),
    .id = row_number()
    ) %>%
  unite('sample.name', name, hours, reps, sep = '-') %>%
  select(-.id)

samples
#> # A tibble: 24 × 2
#>    sample.name value
#>    <chr>       <int>
#>  1 MT-t0-1        71
#>  2 MT-t0-2        77
#>  3 MT-t0-3        51
#>  4 MT-t24-1       88
#>  5 MT-t24-2       50
#>  6 MT-t24-3       90
#>  7 MT-t4-1        67
#>  8 MT-t4-2         9
#>  9 MT-t4-3        84
#> 10 MT-t8-1        29
#> # … with 14 more rows

Extracting sample names

Because the samples have systematic names, it is easy to separate this information into individual columns.

sample_info <- samples %>%
  tidyr::separate(
    sample.name,
    into = c('sample', 'hour', 'rep'),
    sep = "-"
  )

sample_info
#> # A tibble: 24 × 4
#>    sample hour  rep   value
#>    <chr>  <chr> <chr> <int>
#>  1 MT     t0    1        71
#>  2 MT     t0    2        77
#>  3 MT     t0    3        51
#>  4 MT     t24   1        88
#>  5 MT     t24   2        50
#>  6 MT     t24   3        90
#>  7 MT     t4    1        67
#>  8 MT     t4    2         9
#>  9 MT     t4    3        84
#> 10 MT     t8    1        29
#> # … with 14 more rows
…
We will use tidying concepts to prepare this data for efficient analysis and visualization.

qPCR data tidying

Tidy qpcr_data and qpcr_names into a structure like:

#> # A tibble: 96 × 3
#>    row   col     exp
#>    <chr> <chr> <dbl>
#>  1 A     1       2.6
#>  2 B     1       0  
#>  3 C     1       1.6
#>  4 D     1       0  
#>  5 E     1       2.8
#>  6 F     1       0  
#>  7 G     1      12  
#>  8 H     1       0  
#>  9 A     2      10.5
#> 10 B     2       0  
#> # … with 86 more rows

Sample names

Separate variables into new columns in qpcr_names_tidy.

#> # A tibble: 96 × 7
#>    row   col   sample time  gene  rt    rep  
#>    <chr> <chr> <chr>  <chr> <chr> <chr> <chr>
#>  1 A     1     mut    0     ACTIN +     1    
#>  2 B     1     mut    0     ACTIN -     1    
#>  3 C     1     mut    0     ACTIN +     2    
#>  4 D     1     mut    0     ACTIN -     2    
#>  5 E     1     mut    0     ACTIN +     3    
#>  6 F     1     mut    0     ACTIN -     3    
#>  7 G     1     mut    0     IFN   +     1    
#>  8 H     1     mut    0     IFN   -     1    
#>  9 A     2     mut    0     IFN   +     2    
#> 10 B     2     mut    0     IFN   -     2    
#> # … with 86 more rows

Data joining

Join the tidied data together.

#> Joining, by = c("row", "col")
#> # A tibble: 96 × 8
#>    row   col   sample time  gene  rt    rep     exp
#>    <chr> <chr> <chr>  <chr> <chr> <chr> <chr> <dbl>
#>  1 A     1     mut    0     ACTIN +     1       2.6
#>  2 B     1     mut    0     ACTIN -     1       0  
#>  3 C     1     mut    0     ACTIN +     2       1.6
#>  4 D     1     mut    0     ACTIN -     2       0  
#>  5 E     1     mut    0     ACTIN +     3       2.8
#>  6 F     1     mut    0     ACTIN -     3       0  
#>  7 G     1     mut    0     IFN   +     1      12  
#>  8 H     1     mut    0     IFN   -     1       0  
#>  9 A     2     mut    0     IFN   +     2      10.5
#> 10 B     2     mut    0     IFN   -     2       0  
#> # … with 86 more rows
…
