Exercises 3 • eda
…
The Encode project has performed eCLIP experiments to map RNA binding protein (RBP) binding sites for > 100 RBPs. Go to the Encode website, search for eCLIP experiments, select an RBP eClip experiment, and load a BED file (bed narrowPeak file format) with the binding sites into R using just the url.

Use the read_narrowPeak() function from valr to read in your bed file using just the URL. Do not download the file locally.

Also, make sure that the file was generated using the hg19 genome build, and that you do not select the eCLIP mock input samples, which are negative controls. Display the bed tibble that you pulled from the Encode database and give a one to two sentence summary about the known functions of the RBP.

Here’s an example. An eClip experiment for PTPB1 was performed (info here. I selected hg19 and in the file details menu and selected a bed narrowPeak file here. I copied the URL by right-clicking on Download ENCFF471GJ and selecting copy link address. Note that the extension of the file in the URL that you use should be .bed.gz, do not use bigBed, fastq, bam, or bigWig files.

library(valr)
url <- "https://www.encodeproject.org/files/ENCFF471GJE/@@download/ENCFF471GJE.bed.gz"

read_narrowpeak(url)

## # A tibble: 229,446 x 10
##    chrom   start     end name      score strand signal pvalue qvalue  peak
##    <chr>   <int>   <int> <chr>     <int> <chr>   <dbl>  <dbl>  <dbl> <int>
##  1 chr7   9.85e7  9.85e7 PTBP1_He…  1000 +        4.11  400       -1    -1
##  2 chr7   9.43e7  9.43e7 PTBP1_He…  1000 +        3.70  400       -1    -1
##  3 chr7   9.85e7  9.85e7 PTBP1_He…  1000 +        3.65  400       -1    -1
##  4 chr7   9.85e7  9.85e7 PTBP1_He…  1000 +        3.55  400       -1    -1
##  5 chr7   9.85e7  9.85e7 PTBP1_He…  1000 +        3.54  400       -1    -1
##  6 chr7   9.85e7  9.85e7 PTBP1_He…  1000 +        3.49  400       -1    -1
##  7 chr7   9.43e7  9.43e7 PTBP1_He…  1000 +        3.41  400       -1    -1
##  8 chr7   9.85e7  9.85e7 PTBP1_He…  1000 +        3.61   81.1     -1    -1
##  9 chr7   1.05e8  1.05e8 PTBP1_He…  1000 +        5.40   78.2     -1    -1
## 10 chr7   9.85e7  9.85e7 PTBP1_He…  1000 +        3.35   77.8     -1    -1
## # ... with 229,436 more rows
…
