Problem Set 2 • pbda
…
This code will give you the path and file names of the CSVs.

# devtools::install_github('rnabioco/eda')
qpcr384_data_csv <- system.file("extdata", "qpcr-data-384.csv", package = 'pbda')
qpcr384_names_csv <- system.file("extdata", "qpcr-names-384.csv", package = 'pbda')

Exercise 1

Use a function from the readr library–part of the tidyverse–to load the CSV data. You should have two new tibbles.

Exercise 2

Inspect these tibbles and make note of their resemblance to a 384 plate. Tidy these tibbles into this format:

# A tibble: 128 x 6
cell  time  gene    rt   exp_mean      exp_var
<chr> <chr> <chr> <chr>      <dbl>        <dbl>
1 MAGIC-hypo     0 ACTIN     -   1.000000 0.000000e+00
2 MAGIC-hypo     0 ACTIN     +   2.333333 4.133333e-01
3 MAGIC-hypo     0 MAGIC     -   1.000000 0.000000e+00
4 MAGIC-hypo     0 MAGIC     +  13.000000 9.750000e+00
5 MAGIC-hypo     0  POOF     -   1.000000 0.000000e+00
6 MAGIC-hypo     0  POOF     + 981.333333 5.717973e+05
7 MAGIC-hypo     0  WAND     -   1.000000 0.000000e+00
8 MAGIC-hypo     0  WAND     +   1.000000 1.900000e-01
9 MAGIC-hypo    12 ACTIN     -   1.000000 0.000000e+00
10 MAGIC-hypo    12 ACTIN     +  10.000000 1.600000e-01
# ... with 118 more rows
…
